<?xml version="1.0" encoding="UTF-8"?>
<!DOCTYPE svg PUBLIC "-//W3C//DTD SVG 1.1//EN" "http://www.w3.org/Graphics/SVG/1.1/DTD/svg11.dtd">
<svg xmlns="http://www.w3.org/2000/svg" version="1.1" width="4128px" height="608px" style="shape-rendering:geometricPrecision; text-rendering:geometricPrecision; image-rendering:optimizeQuality; fill-rule:evenodd; clip-rule:evenodd" xmlns:xlink="http://www.w3.org/1999/xlink">
<g><path style="opacity:0.987" fill="#4b5c65" d="M 113.5,-0.5 C 139.167,-0.5 164.833,-0.5 190.5,-0.5C 190.5,25.1667 190.5,50.8333 190.5,76.5C 164.833,76.5 139.167,76.5 113.5,76.5C 113.5,50.8333 113.5,25.1667 113.5,-0.5 Z"/></g>
<g><path style="opacity:0.987" fill="#4b5c65" d="M 228.5,-0.5 C 254.167,-0.5 279.833,-0.5 305.5,-0.5C 305.5,25.1667 305.5,50.8333 305.5,76.5C 279.833,76.5 254.167,76.5 228.5,76.5C 228.5,50.8333 228.5,25.1667 228.5,-0.5 Z"/></g>
<g><path style="opacity:0.953" fill="#4b5c65" d="M 452.5,-0.5 C 456.167,-0.5 459.833,-0.5 463.5,-0.5C 463.5,139.833 463.5,280.167 463.5,420.5C 459.833,420.5 456.167,420.5 452.5,420.5C 452.5,280.167 452.5,139.833 452.5,-0.5 Z"/></g>
<g><path style="opacity:0.985" fill="#7fba25" d="M 609.5,-0.5 C 714.5,-0.5 819.5,-0.5 924.5,-0.5C 924.5,25.1667 924.5,50.8333 924.5,76.5C 886.5,76.5 848.5,76.5 810.5,76.5C 810.5,191.167 810.5,305.833 810.5,420.5C 781.5,420.5 752.5,420.5 723.5,420.5C 723.5,305.833 723.5,191.167 723.5,76.5C 685.5,76.5 647.5,76.5 609.5,76.5C 609.5,50.8333 609.5,25.1667 609.5,-0.5 Z"/></g>
<g><path style="opacity:0.992" fill="#7fba25" d="M 1018.5,-0.5 C 1047.17,-0.5 1075.83,-0.5 1104.5,-0.5C 1104.5,55.8333 1104.5,112.167 1104.5,168.5C 1153.5,168.5 1202.5,168.5 1251.5,168.5C 1251.5,112.167 1251.5,55.8333 1251.5,-0.5C 1280.17,-0.5 1308.83,-0.5 1337.5,-0.5C 1337.5,139.833 1337.5,280.167 1337.5,420.5C 1308.83,420.5 1280.17,420.5 1251.5,420.5C 1251.5,361.833 1251.5,303.167 1251.5,244.5C 1202.5,244.5 1153.5,244.5 1104.5,244.5C 1104.5,303.167 1104.5,361.833 1104.5,420.5C 1075.83,420.5 1047.17,420.5 1018.5,420.5C 1018.5,280.167 1018.5,139.833 1018.5,-0.5 Z"/></g>
<g><path style="opacity:0.986" fill="#7fba25" d="M 1431.5,-0.5 C 1460.17,-0.5 1488.83,-0.5 1517.5,-0.5C 1554.72,77.6 1592.22,155.6 1630,233.5C 1668.31,155.875 1705.81,77.8746 1742.5,-0.5C 1771.17,-0.5 1799.83,-0.5 1828.5,-0.5C 1828.5,139.833 1828.5,280.167 1828.5,420.5C 1799.5,420.5 1770.5,420.5 1741.5,420.5C 1741.67,342.499 1741.5,264.499 1741,186.5C 1714.67,238.5 1688.33,290.5 1662,342.5C 1640.9,343.826 1619.73,343.826 1598.5,342.5C 1572,290.167 1545.5,237.833 1519,185.5C 1518.5,263.833 1518.33,342.166 1518.5,420.5C 1489.5,420.5 1460.5,420.5 1431.5,420.5C 1431.5,280.167 1431.5,139.833 1431.5,-0.5 Z"/></g>
<g><path style="opacity:0.874" fill="#4b5c65" d="M 1974.5,-0.5 C 1978.5,-0.5 1982.5,-0.5 1986.5,-0.5C 1986.5,139.833 1986.5,280.167 1986.5,420.5C 1982.5,420.5 1978.5,420.5 1974.5,420.5C 1974.5,280.167 1974.5,139.833 1974.5,-0.5 Z"/></g>
<g><path style="opacity:0.966" fill="#4b5c65" d="M 2180.5,-0.5 C 2188.83,-0.5 2197.17,-0.5 2205.5,-0.5C 2232.98,5.9836 2248.64,23.3169 2252.5,51.5C 2241.5,51.5 2230.5,51.5 2219.5,51.5C 2214.53,32.0089 2202.2,24.8422 2182.5,30C 2171.8,35.0515 2166.3,43.5515 2166,55.5C 2165.33,72.8333 2165.33,90.1667 2166,107.5C 2168.45,128.954 2180.28,137.787 2201.5,134C 2211.07,130.401 2217.07,123.568 2219.5,113.5C 2230.48,112.501 2241.48,112.168 2252.5,112.5C 2245.44,149.376 2223.11,166.543 2185.5,164C 2161.04,161.182 2144.54,148.348 2136,125.5C 2131.06,95.0909 2131.39,64.7576 2137,34.5C 2145.73,15.564 2160.23,3.89735 2180.5,-0.5 Z"/></g>
<g><path style="opacity:0.967" fill="#4b5c65" d="M 2934.5,-0.5 C 2944.17,-0.5 2953.83,-0.5 2963.5,-0.5C 2977.39,1.85897 2989.55,7.85897 3000,17.5C 3000.67,18.1667 3000.67,18.8333 3000,19.5C 2993.62,26.2112 2986.96,32.5446 2980,38.5C 2964.79,26.6421 2948.29,24.4755 2930.5,32C 2921.94,39.3066 2920.44,47.8066 2926,57.5C 2928.56,59.7272 2931.4,61.5606 2934.5,63C 2947.5,65.3333 2960.5,67.6667 2973.5,70C 2991.18,74.8521 3001.34,86.3521 3004,104.5C 3007.48,133.059 2995.64,151.892 2968.5,161C 2944.27,167.233 2920.94,164.9 2898.5,154C 2893.37,150.703 2888.71,146.87 2884.5,142.5C 2891.17,135.167 2898.17,128.167 2905.5,121.5C 2922.63,134.852 2941.63,138.352 2962.5,132C 2971.29,126.924 2974.45,119.424 2972,109.5C 2970.57,104.402 2967.4,100.902 2962.5,99C 2950.89,96.7221 2939.22,94.7221 2927.5,93C 2899.05,85.9836 2887.22,67.817 2892,38.5C 2894.82,24.0149 2902.66,13.1816 2915.5,6C 2921.71,3.09824 2928.04,0.931571 2934.5,-0.5 Z"/></g>
<g><path style="opacity:0.953" fill="#4b5c65" d="M 3164.5,-0.5 C 3168.17,-0.5 3171.83,-0.5 3175.5,-0.5C 3175.5,139.833 3175.5,280.167 3175.5,420.5C 3171.83,420.5 3168.17,420.5 3164.5,420.5C 3164.5,280.167 3164.5,139.833 3164.5,-0.5 Z"/></g>
<g><path style="opacity:0.97" fill="#4b5c65" d="M 3322.5,-0.5 C 3358.5,-0.5 3394.5,-0.5 3430.5,-0.5C 3430.5,9.16667 3430.5,18.8333 3430.5,28.5C 3405.5,28.5 3380.5,28.5 3355.5,28.5C 3355.5,40.8333 3355.5,53.1667 3355.5,65.5C 3376.83,65.5 3398.17,65.5 3419.5,65.5C 3419.5,75.1667 3419.5,84.8333 3419.5,94.5C 3398.17,94.5 3376.83,94.5 3355.5,94.5C 3355.5,107.167 3355.5,119.833 3355.5,132.5C 3380.5,132.5 3405.5,132.5 3430.5,132.5C 3430.5,142.167 3430.5,151.833 3430.5,161.5C 3394.5,161.5 3358.5,161.5 3322.5,161.5C 3322.5,107.5 3322.5,53.5 3322.5,-0.5 Z"/></g>
<g><path style="opacity:0.991" fill="#4b5c65" d="M 3460.5,-0.5 C 3471.17,-0.5 3481.83,-0.5 3492.5,-0.5C 3492.5,53.5 3492.5,107.5 3492.5,161.5C 3481.83,161.5 3471.17,161.5 3460.5,161.5C 3460.5,107.5 3460.5,53.5 3460.5,-0.5 Z"/></g>
<g><path style="opacity:0.97" fill="#4b5c65" d="M 2317.5,0.5 C 2326.19,0.168631 2334.86,0.501964 2343.5,1.5C 2362.88,55.132 2382.54,108.632 2402.5,162C 2390.84,162.5 2379.17,162.667 2367.5,162.5C 2365,153.169 2362,144.002 2358.5,135C 2339.83,134.333 2321.17,134.333 2302.5,135C 2298.97,143.923 2295.64,152.923 2292.5,162C 2281.15,162.832 2269.82,162.666 2258.5,161.5C 2278.37,107.882 2298.04,54.215 2317.5,0.5 Z M 2330.5,50.5 C 2337.21,68.9555 2343.54,87.6221 2349.5,106.5C 2336.83,106.667 2324.16,106.5 2311.5,106C 2318.33,87.6679 2324.67,69.1679 2330.5,50.5 Z"/></g>
<g><path style="opacity:0.977" fill="#4b5c65" d="M 2421.5,0.5 C 2432.19,0.167965 2442.85,0.501299 2453.5,1.5C 2467.33,29.8333 2481.17,58.1667 2495,86.5C 2508.39,58.0447 2522.06,29.7113 2536,1.5C 2546.75,0.512993 2557.59,0.17966 2568.5,0.5C 2568.5,54.5 2568.5,108.5 2568.5,162.5C 2557.5,162.5 2546.5,162.5 2535.5,162.5C 2535.67,132.498 2535.5,102.498 2535,72.5C 2525.5,91.5 2516,110.5 2506.5,129.5C 2498.83,130.833 2491.17,130.833 2483.5,129.5C 2473.41,110.323 2463.58,90.9893 2454,71.5C 2453.5,101.832 2453.33,132.165 2453.5,162.5C 2442.83,162.5 2432.17,162.5 2421.5,162.5C 2421.5,108.5 2421.5,54.5 2421.5,0.5 Z"/></g>
<g><path style="opacity:0.981" fill="#4b5c65" d="M 2605.5,0.5 C 2629.84,0.333365 2654.17,0.500031 2678.5,1C 2705.94,6.44011 2720.61,23.1068 2722.5,51C 2720.86,77.6466 2707.19,94.3132 2681.5,101C 2666.87,102.351 2652.2,102.851 2637.5,102.5C 2637.5,122.5 2637.5,142.5 2637.5,162.5C 2626.83,162.5 2616.17,162.5 2605.5,162.5C 2605.5,108.5 2605.5,54.5 2605.5,0.5 Z M 2637.5,29.5 C 2650.23,29.08 2662.89,29.58 2675.5,31C 2684.51,34.8537 2689.18,41.687 2689.5,51.5C 2689.29,60.7535 2684.96,67.2535 2676.5,71C 2663.57,72.4428 2650.57,72.9428 2637.5,72.5C 2637.5,58.1667 2637.5,43.8333 2637.5,29.5 Z"/></g>
<g><path style="opacity:0.97" fill="#4b5c65" d="M 2745.5,0.5 C 2756.17,0.5 2766.83,0.5 2777.5,0.5C 2777.03,38.8734 2777.53,77.2067 2779,115.5C 2784.94,131.725 2796.44,137.892 2813.5,134C 2823.85,130.978 2830.02,124.145 2832,113.5C 2832.5,75.8348 2832.67,38.1681 2832.5,0.5C 2843.5,0.5 2854.5,0.5 2865.5,0.5C 2865.67,37.5015 2865.5,74.5015 2865,111.5C 2859.79,145.699 2839.79,163.366 2805,164.5C 2777.61,164.07 2758.61,151.403 2748,126.5C 2747.21,123.529 2746.54,120.529 2746,117.5C 2745.5,78.5014 2745.33,39.5014 2745.5,0.5 Z"/></g>
<g><path style="opacity:0.978" fill="#4b5c65" d="M -0.5,113.5 C 25.1667,113.5 50.8333,113.5 76.5,113.5C 76.5,139.5 76.5,165.5 76.5,191.5C 50.8333,191.5 25.1667,191.5 -0.5,191.5C -0.5,165.5 -0.5,139.5 -0.5,113.5 Z"/></g>
<g><path style="opacity:0.978" fill="#4b5c65" d="M 113.5,113.5 C 139.167,113.5 164.833,113.5 190.5,113.5C 190.5,139.5 190.5,165.5 190.5,191.5C 164.833,191.5 139.167,191.5 113.5,191.5C 113.5,165.5 113.5,139.5 113.5,113.5 Z"/></g>
<g><path style="opacity:0.978" fill="#4b5c65" d="M 228.5,113.5 C 254.167,113.5 279.833,113.5 305.5,113.5C 305.5,139.5 305.5,165.5 305.5,191.5C 279.833,191.5 254.167,191.5 228.5,191.5C 228.5,165.5 228.5,139.5 228.5,113.5 Z"/></g>
<g><path style="opacity:0.99" fill="#4b5c65" d="M -0.5,228.5 C 25.1667,228.5 50.8333,228.5 76.5,228.5C 76.5,254.167 76.5,279.833 76.5,305.5C 50.8333,305.5 25.1667,305.5 -0.5,305.5C -0.5,279.833 -0.5,254.167 -0.5,228.5 Z"/></g>
<g><path style="opacity:0.99" fill="#4b5c65" d="M 113.5,228.5 C 139.167,228.5 164.833,228.5 190.5,228.5C 190.5,254.167 190.5,279.833 190.5,305.5C 164.833,305.5 139.167,305.5 113.5,305.5C 113.5,279.833 113.5,254.167 113.5,228.5 Z"/></g>
<g><path style="opacity:0.99" fill="#7fba25" d="M 228.5,228.5 C 254.167,228.5 279.833,228.5 305.5,228.5C 305.5,254.167 305.5,279.833 305.5,305.5C 279.833,305.5 254.167,305.5 228.5,305.5C 228.5,279.833 228.5,254.167 228.5,228.5 Z"/></g>
<g><path style="opacity:0.908" fill="#4b5c65" d="M 3322.5,253.5 C 3336.5,253.5 3350.5,253.5 3364.5,253.5C 3364.5,255.833 3364.5,258.167 3364.5,260.5C 3353.17,260.5 3341.83,260.5 3330.5,260.5C 3330.5,267.833 3330.5,275.167 3330.5,282.5C 3340.17,282.5 3349.83,282.5 3359.5,282.5C 3359.5,284.833 3359.5,287.167 3359.5,289.5C 3349.83,289.5 3340.17,289.5 3330.5,289.5C 3330.5,297.167 3330.5,304.833 3330.5,312.5C 3341.83,312.5 3353.17,312.5 3364.5,312.5C 3364.5,314.833 3364.5,317.167 3364.5,319.5C 3350.5,319.5 3336.5,319.5 3322.5,319.5C 3322.5,297.5 3322.5,275.5 3322.5,253.5 Z"/></g>
<g><path style="opacity:0.956" fill="#4b5c65" d="M 3376.5,253.5 C 3378.83,253.5 3381.17,253.5 3383.5,253.5C 3383.33,271.836 3383.5,290.17 3384,308.5C 3384.32,310.061 3385.15,311.228 3386.5,312C 3388.81,312.497 3391.14,312.663 3393.5,312.5C 3393.5,314.833 3393.5,317.167 3393.5,319.5C 3388.55,320.041 3383.88,319.208 3379.5,317C 3378.54,315.581 3377.71,314.081 3377,312.5C 3376.5,292.836 3376.33,273.169 3376.5,253.5 Z"/></g>
<g><path style="opacity:0.87" fill="#4b5c65" d="M 3449.5,253.5 C 3452.17,253.5 3454.83,253.5 3457.5,253.5C 3457.33,267.504 3457.5,281.504 3458,295.5C 3463.81,288.054 3469.98,280.887 3476.5,274C 3479.83,273.333 3483.17,273.333 3486.5,274C 3481.31,279.686 3476.31,285.519 3471.5,291.5C 3477.42,300.331 3483.08,309.331 3488.5,318.5C 3485.55,319.655 3482.55,319.821 3479.5,319C 3475.03,311.698 3470.36,304.532 3465.5,297.5C 3462.81,300.354 3460.31,303.354 3458,306.5C 3457.5,310.821 3457.33,315.154 3457.5,319.5C 3454.83,319.5 3452.17,319.5 3449.5,319.5C 3449.5,297.5 3449.5,275.5 3449.5,253.5 Z"/></g>
<g><path style="opacity:0.92" fill="#4b5c65" d="M 3805.5,253.5 C 3807.83,253.5 3810.17,253.5 3812.5,253.5C 3812.5,275.5 3812.5,297.5 3812.5,319.5C 3810.17,319.5 3807.83,319.5 3805.5,319.5C 3805.66,318.127 3805.49,316.793 3805,315.5C 3797.93,321.373 3790.43,321.873 3782.5,317C 3777.49,311.133 3775.49,304.299 3776.5,296.5C 3774.83,278.331 3782.83,270.831 3800.5,274C 3802.29,274.785 3803.79,275.951 3805,277.5C 3805.5,269.507 3805.67,261.507 3805.5,253.5 Z M 3792.5,279.5 C 3795.96,279.596 3799.12,280.596 3802,282.5C 3806.67,291.833 3806.67,301.167 3802,310.5C 3796.04,314.842 3790.7,314.176 3786,308.5C 3782.67,300.5 3782.67,292.5 3786,284.5C 3787.8,282.174 3789.97,280.508 3792.5,279.5 Z"/></g>
<g><path style="opacity:0.966" fill="#4b5c65" d="M 2184.5,254.5 C 2211.65,251.827 2232.48,261.827 2247,284.5C 2250.7,291.751 2252.86,299.418 2253.5,307.5C 2242.83,307.667 2232.16,307.5 2221.5,307C 2214.89,287.358 2201.55,280.358 2181.5,286C 2173.39,290.054 2168.56,296.554 2167,305.5C 2165,327.167 2165,348.833 2167,370.5C 2172.18,386.967 2183.34,393.467 2200.5,390C 2216.49,384.218 2223.49,372.718 2221.5,355.5C 2211.83,355.5 2202.17,355.5 2192.5,355.5C 2192.5,346.167 2192.5,336.833 2192.5,327.5C 2213.17,327.5 2233.83,327.5 2254.5,327.5C 2255.26,345.315 2254.09,362.982 2251,380.5C 2245.75,396.756 2235.25,408.256 2219.5,415C 2190.31,425.7 2165.14,419.867 2144,397.5C 2137.76,388.864 2134.42,379.198 2134,368.5C 2131.58,343.405 2132.24,318.405 2136,293.5C 2141.32,276.85 2152.15,265.35 2168.5,259C 2173.87,257.16 2179.21,255.66 2184.5,254.5 Z"/></g>
<g><path style="opacity:0.968" fill="#4b5c65" d="M 2529.5,254.5 C 2546.74,253.194 2563.08,256.361 2578.5,264C 2582.93,266.596 2586.93,269.762 2590.5,273.5C 2583.85,280.652 2577.01,287.652 2570,294.5C 2557.92,284.545 2544.09,281.045 2528.5,284C 2516.9,287.6 2511.73,295.434 2513,307.5C 2516.18,314.679 2521.68,318.846 2529.5,320C 2543.45,321.278 2557.12,323.945 2570.5,328C 2584.09,334.602 2591.92,345.435 2594,360.5C 2596.36,394.146 2580.86,413.646 2547.5,419C 2525.49,422.287 2504.82,418.621 2485.5,408C 2481.53,405.036 2477.87,401.703 2474.5,398C 2481.35,390.985 2488.35,384.152 2495.5,377.5C 2512.32,390.297 2530.99,393.797 2551.5,388C 2562.71,381.588 2565.55,372.422 2560,360.5C 2556.31,356.572 2551.81,354.072 2546.5,353C 2532.54,351.721 2518.88,349.055 2505.5,345C 2492.46,339.293 2484.62,329.459 2482,315.5C 2478.22,279.789 2494.05,259.456 2529.5,254.5 Z"/></g>
<g><path style="opacity:0.967" fill="#4b5c65" d="M 2661.5,254.5 C 2680.45,252.789 2698.12,256.623 2714.5,266C 2717.8,268.295 2720.8,270.962 2723.5,274C 2716.67,280.833 2709.83,287.667 2703,294.5C 2690.88,284.679 2677.05,281.179 2661.5,284C 2649.43,287.308 2644.26,295.142 2646,307.5C 2648.26,313.245 2652.43,317.078 2658.5,319C 2668.77,321.038 2679.1,322.705 2689.5,324C 2718.07,330.243 2730.57,348.077 2727,377.5C 2723.86,395.643 2713.7,408.143 2696.5,415C 2691.32,416.961 2685.99,418.294 2680.5,419C 2659.84,422.04 2640.18,419.04 2621.5,410C 2616.37,406.703 2611.71,402.87 2607.5,398.5C 2614.17,391.167 2621.17,384.167 2628.5,377.5C 2644.22,389.682 2661.89,393.515 2681.5,389C 2692.27,385.301 2696.77,377.801 2695,366.5C 2692.77,358.12 2687.27,353.62 2678.5,353C 2664.86,351.796 2651.52,349.129 2638.5,345C 2623.42,338.558 2615.25,327.058 2614,310.5C 2613.41,277.922 2629.24,259.255 2661.5,254.5 Z"/></g>
<g><path style="opacity:0.956" fill="#4b5c65" d="M 2282.5,255.5 C 2293.5,255.5 2304.5,255.5 2315.5,255.5C 2315.5,309.833 2315.5,364.167 2315.5,418.5C 2304.5,418.5 2293.5,418.5 2282.5,418.5C 2282.5,364.167 2282.5,309.833 2282.5,255.5 Z"/></g>
<g><path style="opacity:0.962" fill="#4b5c65" d="M 2351.5,255.5 C 2387.5,255.5 2423.5,255.5 2459.5,255.5C 2459.5,265.5 2459.5,275.5 2459.5,285.5C 2434.5,285.5 2409.5,285.5 2384.5,285.5C 2384.5,297.833 2384.5,310.167 2384.5,322.5C 2405.83,322.5 2427.17,322.5 2448.5,322.5C 2448.5,332.167 2448.5,341.833 2448.5,351.5C 2427.17,351.5 2405.83,351.5 2384.5,351.5C 2384.5,364.167 2384.5,376.833 2384.5,389.5C 2409.5,389.5 2434.5,389.5 2459.5,389.5C 2459.5,399.167 2459.5,408.833 2459.5,418.5C 2423.5,418.5 2387.5,418.5 2351.5,418.5C 2351.5,364.167 2351.5,309.833 2351.5,255.5 Z"/></g>
<g><path style="opacity:0.976" fill="#4b5c65" d="M 2756.5,255.5 C 2792.17,255.5 2827.83,255.5 2863.5,255.5C 2863.5,265.5 2863.5,275.5 2863.5,285.5C 2838.5,285.5 2813.5,285.5 2788.5,285.5C 2788.5,297.833 2788.5,310.167 2788.5,322.5C 2809.83,322.5 2831.17,322.5 2852.5,322.5C 2852.5,332.167 2852.5,341.833 2852.5,351.5C 2831.17,351.5 2809.83,351.5 2788.5,351.5C 2788.5,364.167 2788.5,376.833 2788.5,389.5C 2813.5,389.5 2838.5,389.5 2863.5,389.5C 2863.5,399.167 2863.5,408.833 2863.5,418.5C 2827.83,418.5 2792.17,418.5 2756.5,418.5C 2756.5,364.167 2756.5,309.833 2756.5,255.5 Z"/></g>
<g><path style="opacity:0.972" fill="#4b5c65" d="M 2893.5,255.5 C 2903.42,255.181 2913.25,255.514 2923,256.5C 2943.67,288.5 2964.33,320.5 2985,352.5C 2985.5,320.168 2985.67,287.835 2985.5,255.5C 2996.5,255.5 3007.5,255.5 3018.5,255.5C 3018.5,309.833 3018.5,364.167 3018.5,418.5C 3008.25,418.819 2998.08,418.486 2988,417.5C 2967.33,385.5 2946.67,353.5 2926,321.5C 2925.5,353.832 2925.33,386.165 2925.5,418.5C 2914.83,418.5 2904.17,418.5 2893.5,418.5C 2893.5,364.167 2893.5,309.833 2893.5,255.5 Z"/></g>
<g><path style="opacity:0.937" fill="#4b5c65" d="M 3500.5,259.5 C 3502.83,259.5 3505.17,259.5 3507.5,259.5C 3507.5,264.167 3507.5,268.833 3507.5,273.5C 3510.83,273.5 3514.17,273.5 3517.5,273.5C 3517.5,275.5 3517.5,277.5 3517.5,279.5C 3514.17,279.5 3510.83,279.5 3507.5,279.5C 3507.33,289.172 3507.5,298.839 3508,308.5C 3508.47,309.931 3509.3,311.097 3510.5,312C 3512.81,312.497 3515.14,312.663 3517.5,312.5C 3517.5,314.833 3517.5,317.167 3517.5,319.5C 3510.15,321.241 3504.65,318.908 3501,312.5C 3500.5,301.505 3500.33,290.505 3500.5,279.5C 3498.5,279.5 3496.5,279.5 3494.5,279.5C 3494.5,277.5 3494.5,275.5 3494.5,273.5C 3496.5,273.5 3498.5,273.5 3500.5,273.5C 3500.5,268.833 3500.5,264.167 3500.5,259.5 Z"/></g>
<g><path style="opacity:0.867" fill="#4b5c65" d="M 3415.5,272.5 C 3426.06,271.856 3432.9,276.522 3436,286.5C 3436.5,290.486 3436.67,294.486 3436.5,298.5C 3426.5,298.5 3416.5,298.5 3406.5,298.5C 3406.64,309.144 3411.97,313.977 3422.5,313C 3425.71,312.144 3428.55,310.644 3431,308.5C 3433.11,309.608 3434.95,311.108 3436.5,313C 3428.24,320.45 3418.91,322.117 3408.5,318C 3401.44,312.707 3398.11,305.54 3398.5,296.5C 3398.33,288.492 3401,281.659 3406.5,276C 3409.46,274.396 3412.46,273.229 3415.5,272.5 Z M 3414.5,279.5 C 3423.51,279.171 3428.51,283.504 3429.5,292.5C 3421.83,292.5 3414.17,292.5 3406.5,292.5C 3406.74,286.606 3409.41,282.272 3414.5,279.5 Z"/></g>
<g><path style="opacity:0.85" fill="#4b5c65" d="M 3546.5,272.5 C 3552.04,272.042 3556.71,273.708 3560.5,277.5C 3558.85,279.65 3557.02,281.65 3555,283.5C 3549.38,278.065 3544.04,278.398 3539,284.5C 3537.54,296.065 3537.04,307.732 3537.5,319.5C 3534.83,319.5 3532.17,319.5 3529.5,319.5C 3529.5,304.167 3529.5,288.833 3529.5,273.5C 3532.17,273.5 3534.83,273.5 3537.5,273.5C 3537.35,274.552 3537.52,275.552 3538,276.5C 3540.74,274.711 3543.57,273.378 3546.5,272.5 Z"/></g>
<g><path style="opacity:0.874" fill="#4b5c65" d="M 3578.5,272.5 C 3590.12,271.958 3597.28,277.291 3600,288.5C 3601.32,296.839 3600.32,304.839 3597,312.5C 3586.67,323.167 3576.33,323.167 3566,312.5C 3561.33,301.833 3561.33,291.167 3566,280.5C 3569.38,276.406 3573.54,273.739 3578.5,272.5 Z M 3579.5,279.5 C 3589.79,280.36 3594.12,286.026 3592.5,296.5C 3593.98,309.198 3588.64,314.364 3576.5,312C 3571.48,308.113 3569.48,302.947 3570.5,296.5C 3569.2,288.306 3572.2,282.639 3579.5,279.5 Z"/></g>
<g><path style="opacity:0.86" fill="#4b5c65" d="M 3744.5,272.5 C 3752.1,272.215 3757.93,275.215 3762,281.5C 3763.42,294.106 3763.92,306.772 3763.5,319.5C 3760.83,319.5 3758.17,319.5 3755.5,319.5C 3755.67,308.495 3755.5,297.495 3755,286.5C 3751.06,279.521 3745.56,278.021 3738.5,282C 3736.96,283.579 3735.79,285.413 3735,287.5C 3734.5,298.161 3734.33,308.828 3734.5,319.5C 3731.83,319.5 3729.17,319.5 3726.5,319.5C 3726.5,304.167 3726.5,288.833 3726.5,273.5C 3729.17,273.5 3731.83,273.5 3734.5,273.5C 3734.28,274.675 3734.61,275.675 3735.5,276.5C 3738.29,274.432 3741.29,273.098 3744.5,272.5 Z"/></g>
<g><path style="opacity:0.863" fill="#4b5c65" d="M 3674.5,273.5 C 3677.17,273.5 3679.83,273.5 3682.5,273.5C 3682.33,284.172 3682.5,294.839 3683,305.5C 3685.97,312.717 3691.14,314.883 3698.5,312C 3700.38,310.457 3701.88,308.624 3703,306.5C 3703.5,295.505 3703.67,284.505 3703.5,273.5C 3706.17,273.5 3708.83,273.5 3711.5,273.5C 3711.5,288.833 3711.5,304.167 3711.5,319.5C 3708.83,319.5 3706.17,319.5 3703.5,319.5C 3703.65,318.448 3703.48,317.448 3703,316.5C 3694.18,322.002 3685.84,321.336 3678,314.5C 3676.15,311.431 3675.15,308.098 3675,304.5C 3674.5,294.172 3674.33,283.839 3674.5,273.5 Z"/></g>
<g><path style="opacity:0.867" fill="#4b5c65" d="M 3612.5,290.5 C 3621.17,290.5 3629.83,290.5 3638.5,290.5C 3638.5,292.833 3638.5,295.167 3638.5,297.5C 3629.83,297.5 3621.17,297.5 3612.5,297.5C 3612.5,295.167 3612.5,292.833 3612.5,290.5 Z"/></g>
<g><path style="opacity:0.978" fill="#7fba25" d="M -0.5,342.5 C 25.1667,342.5 50.8333,342.5 76.5,342.5C 76.5,368.5 76.5,394.5 76.5,420.5C 50.8333,420.5 25.1667,420.5 -0.5,420.5C -0.5,394.5 -0.5,368.5 -0.5,342.5 Z"/></g>
<g><path style="opacity:0.978" fill="#4b5c65" d="M 113.5,342.5 C 139.167,342.5 164.833,342.5 190.5,342.5C 190.5,368.5 190.5,394.5 190.5,420.5C 164.833,420.5 139.167,420.5 113.5,420.5C 113.5,394.5 113.5,368.5 113.5,342.5 Z"/></g>
<g><path style="opacity:0.978" fill="#4b5c65" d="M 228.5,342.5 C 254.167,342.5 279.833,342.5 305.5,342.5C 305.5,368.5 305.5,394.5 305.5,420.5C 279.833,420.5 254.167,420.5 228.5,420.5C 228.5,394.5 228.5,368.5 228.5,342.5 Z"/></g>
<g><path style="opacity:0.9" fill="#4b5c65" d="M 3322.5,353.5 C 3325.17,353.5 3327.83,353.5 3330.5,353.5C 3330.5,375.5 3330.5,397.5 3330.5,419.5C 3327.83,419.5 3325.17,419.5 3322.5,419.5C 3322.5,397.5 3322.5,375.5 3322.5,353.5 Z"/></g>
<g><path style="opacity:0.934" fill="#4b5c65" d="M 3406.5,353.5 C 3410.17,353.5 3413.83,353.5 3417.5,353.5C 3417.5,355.5 3417.5,357.5 3417.5,359.5C 3414.4,359.154 3411.56,359.821 3409,361.5C 3407.73,365.395 3407.23,369.395 3407.5,373.5C 3410.83,373.5 3414.17,373.5 3417.5,373.5C 3417.5,375.5 3417.5,377.5 3417.5,379.5C 3414.17,379.5 3410.83,379.5 3407.5,379.5C 3407.5,392.833 3407.5,406.167 3407.5,419.5C 3405.17,419.5 3402.83,419.5 3400.5,419.5C 3400.5,406.167 3400.5,392.833 3400.5,379.5C 3398.5,379.5 3396.5,379.5 3394.5,379.5C 3394.5,377.5 3394.5,375.5 3394.5,373.5C 3396.5,373.5 3398.5,373.5 3400.5,373.5C 3400.33,369.154 3400.5,364.821 3401,360.5C 3401.97,357.379 3403.8,355.046 3406.5,353.5 Z"/></g>
<g><path style="opacity:0.835" fill="#4b5c65" d="M 3671.5,353.5 C 3674.5,353.5 3677.5,353.5 3680.5,353.5C 3680.5,356.167 3680.5,358.833 3680.5,361.5C 3677.5,361.5 3674.5,361.5 3671.5,361.5C 3671.5,358.833 3671.5,356.167 3671.5,353.5 Z"/></g>
<g><path style="opacity:0.933" fill="#4b5c65" d="M 3963.5,353.5 C 3965.83,353.5 3968.17,353.5 3970.5,353.5C 3970.33,361.507 3970.5,369.507 3971,377.5C 3979.15,370.894 3987.31,370.894 3995.5,377.5C 3996.92,379.336 3998.09,381.336 3999,383.5C 3999.5,395.495 3999.67,407.495 3999.5,419.5C 3997.17,419.5 3994.83,419.5 3992.5,419.5C 3992.91,408.104 3992.41,396.77 3991,385.5C 3986.61,379.374 3981.11,378.208 3974.5,382C 3973.3,382.903 3972.47,384.069 3972,385.5C 3970.59,396.77 3970.09,408.104 3970.5,419.5C 3968.17,419.5 3965.83,419.5 3963.5,419.5C 3963.5,397.5 3963.5,375.5 3963.5,353.5 Z"/></g>
<g><path style="opacity:0.835" fill="#4b5c65" d="M 4065.5,353.5 C 4068.5,353.5 4071.5,353.5 4074.5,353.5C 4074.5,356.167 4074.5,358.833 4074.5,361.5C 4071.5,361.5 4068.5,361.5 4065.5,361.5C 4065.5,358.833 4065.5,356.167 4065.5,353.5 Z"/></g>
<g><path style="opacity:0.875" fill="#4b5c65" d="M 4127.5,416.5 C 4127.5,417.5 4127.5,418.5 4127.5,419.5C 4124.43,419.817 4121.43,419.484 4118.5,418.5C 4114.5,411.16 4110,404.16 4105,397.5C 4097.97,403.139 4095.47,410.472 4097.5,419.5C 4094.83,419.5 4092.17,419.5 4089.5,419.5C 4089.5,397.5 4089.5,375.5 4089.5,353.5C 4092.17,353.5 4094.83,353.5 4097.5,353.5C 4097.33,367.171 4097.5,380.837 4098,394.5C 4104.02,387.981 4109.85,381.315 4115.5,374.5C 4118.83,373.167 4122.17,373.167 4125.5,374.5C 4120.85,380.284 4115.85,385.784 4110.5,391C 4115.82,399.824 4121.48,408.324 4127.5,416.5 Z"/></g>
<g><path style="opacity:0.869" fill="#4b5c65" d="M 3642.5,359.5 C 3645.17,359.5 3647.83,359.5 3650.5,359.5C 3650.5,364.167 3650.5,368.833 3650.5,373.5C 3653.83,373.5 3657.17,373.5 3660.5,373.5C 3660.5,375.5 3660.5,377.5 3660.5,379.5C 3657.17,379.5 3653.83,379.5 3650.5,379.5C 3650.33,389.506 3650.5,399.506 3651,409.5C 3651.5,410.667 3652.33,411.5 3653.5,412C 3655.81,412.497 3658.14,412.663 3660.5,412.5C 3660.5,414.833 3660.5,417.167 3660.5,419.5C 3653.58,420.957 3648.08,418.957 3644,413.5C 3642.59,402.23 3642.09,390.896 3642.5,379.5C 3640.83,379.5 3639.17,379.5 3637.5,379.5C 3637.5,377.5 3637.5,375.5 3637.5,373.5C 3639.17,373.5 3640.83,373.5 3642.5,373.5C 3642.5,368.833 3642.5,364.167 3642.5,359.5 Z"/></g>
<g><path style="opacity:0.937" fill="#4b5c65" d="M 3841.5,359.5 C 3843.83,359.5 3846.17,359.5 3848.5,359.5C 3848.5,364.167 3848.5,368.833 3848.5,373.5C 3851.83,373.5 3855.17,373.5 3858.5,373.5C 3858.5,375.5 3858.5,377.5 3858.5,379.5C 3855.17,379.5 3851.83,379.5 3848.5,379.5C 3848.33,389.172 3848.5,398.839 3849,408.5C 3849.47,409.931 3850.3,411.097 3851.5,412C 3853.81,412.497 3856.14,412.663 3858.5,412.5C 3858.5,414.833 3858.5,417.167 3858.5,419.5C 3851.15,421.241 3845.65,418.908 3842,412.5C 3841.5,401.505 3841.33,390.505 3841.5,379.5C 3839.5,379.5 3837.5,379.5 3835.5,379.5C 3835.5,377.5 3835.5,375.5 3835.5,373.5C 3837.5,373.5 3839.5,373.5 3841.5,373.5C 3841.5,368.833 3841.5,364.167 3841.5,359.5 Z"/></g>
<g><path style="opacity:0.939" fill="#4b5c65" d="M 3364.5,372.5 C 3373.38,371.687 3379.55,375.354 3383,383.5C 3383.5,395.495 3383.67,407.495 3383.5,419.5C 3381.17,419.5 3378.83,419.5 3376.5,419.5C 3376.91,408.104 3376.41,396.77 3375,385.5C 3370.61,379.374 3365.11,378.208 3358.5,382C 3357.3,382.903 3356.47,384.069 3356,385.5C 3354.59,396.77 3354.09,408.104 3354.5,419.5C 3352.17,419.5 3349.83,419.5 3347.5,419.5C 3347.5,404.167 3347.5,388.833 3347.5,373.5C 3349.83,373.5 3352.17,373.5 3354.5,373.5C 3354.34,374.873 3354.51,376.207 3355,377.5C 3357.91,375.132 3361.07,373.465 3364.5,372.5 Z"/></g>
<g><path style="opacity:0.88" fill="#4b5c65" d="M 3439.5,372.5 C 3454.76,373.101 3462.1,381.101 3461.5,396.5C 3461.51,414.331 3452.85,421.831 3435.5,419C 3426.43,414.361 3422.43,406.861 3423.5,396.5C 3422.42,383.935 3427.76,375.935 3439.5,372.5 Z M 3440.5,379.5 C 3450.38,380.728 3454.71,386.394 3453.5,396.5C 3454.97,405.663 3451.31,411.33 3442.5,413.5C 3437.21,413.113 3433.71,410.446 3432,405.5C 3431.33,399.5 3431.33,393.5 3432,387.5C 3433.44,383.218 3436.28,380.551 3440.5,379.5 Z"/></g>
<g><path style="opacity:0.871" fill="#4b5c65" d="M 3491.5,372.5 C 3497.01,372.184 3501.67,373.851 3505.5,377.5C 3503.85,379.65 3502.02,381.65 3500,383.5C 3494.38,378.065 3489.04,378.398 3484,384.5C 3482.54,396.065 3482.04,407.732 3482.5,419.5C 3479.83,419.5 3477.17,419.5 3474.5,419.5C 3474.5,404.167 3474.5,388.833 3474.5,373.5C 3477.17,373.5 3479.83,373.5 3482.5,373.5C 3482.35,374.552 3482.52,375.552 3483,376.5C 3485.74,374.711 3488.57,373.378 3491.5,372.5 Z"/></g>
<g><path style="opacity:0.892" fill="#4b5c65" d="M 3530.5,372.5 C 3537.13,372.233 3542.63,374.566 3547,379.5C 3556.67,370.167 3566.33,370.167 3576,379.5C 3576.86,381.087 3577.53,382.754 3578,384.5C 3578.5,396.162 3578.67,407.829 3578.5,419.5C 3575.83,419.5 3573.17,419.5 3570.5,419.5C 3570.67,408.495 3570.5,397.495 3570,386.5C 3566.1,379.537 3560.6,378.037 3553.5,382C 3551.96,383.579 3550.79,385.413 3550,387.5C 3549.5,398.161 3549.33,408.828 3549.5,419.5C 3546.83,419.5 3544.17,419.5 3541.5,419.5C 3541.67,408.162 3541.5,396.828 3541,385.5C 3536.61,379.374 3531.11,378.208 3524.5,382C 3522.68,383.8 3521.52,385.966 3521,388.5C 3520.5,398.828 3520.33,409.161 3520.5,419.5C 3518.17,419.5 3515.83,419.5 3513.5,419.5C 3513.5,404.167 3513.5,388.833 3513.5,373.5C 3515.83,373.5 3518.17,373.5 3520.5,373.5C 3520.28,374.675 3520.61,375.675 3521.5,376.5C 3524.29,374.432 3527.29,373.098 3530.5,372.5 Z"/></g>
<g><path style="opacity:0.895" fill="#4b5c65" d="M 3604.5,372.5 C 3610.46,372.381 3616.12,373.547 3621.5,376C 3623.62,377.731 3625.12,379.898 3626,382.5C 3626.5,394.829 3626.67,407.162 3626.5,419.5C 3624.17,419.5 3621.83,419.5 3619.5,419.5C 3619.65,418.448 3619.48,417.448 3619,416.5C 3611.46,421.114 3603.63,421.614 3595.5,418C 3591.51,415.187 3589.84,411.354 3590.5,406.5C 3590.4,398.429 3594.4,393.929 3602.5,393C 3608.16,392.501 3613.82,392.334 3619.5,392.5C 3619.71,382.256 3614.71,378.089 3604.5,380C 3601.38,380.726 3598.71,382.226 3596.5,384.5C 3594.68,383.185 3593.02,381.685 3591.5,380C 3594.82,375.526 3599.15,373.026 3604.5,372.5 Z M 3604.5,398.5 C 3609.5,398.5 3614.5,398.5 3619.5,398.5C 3619.67,411.769 3613.33,416.269 3600.5,412C 3595.75,405.684 3597.08,401.184 3604.5,398.5 Z"/></g>
<g><path style="opacity:0.884" fill="#4b5c65" d="M 3709.5,372.5 C 3719.76,372.28 3726.6,376.947 3730,386.5C 3730.67,393.167 3730.67,399.833 3730,406.5C 3727.22,415.23 3721.22,419.897 3712,420.5C 3702.47,420.301 3696.47,415.634 3694,406.5C 3693.1,398.754 3693.44,391.087 3695,383.5C 3697.82,377.023 3702.65,373.356 3709.5,372.5 Z M 3710.5,379.5 C 3720.33,380.79 3724.66,386.457 3723.5,396.5C 3724.6,405.65 3720.77,411.317 3712,413.5C 3703.23,411.317 3699.4,405.65 3700.5,396.5C 3699.54,388.063 3702.87,382.396 3710.5,379.5 Z"/></g>
<g><path style="opacity:0.894" fill="#4b5c65" d="M 3761.5,372.5 C 3769.23,372.01 3775.07,375.01 3779,381.5C 3780.44,394.092 3780.94,406.759 3780.5,419.5C 3777.83,419.5 3775.17,419.5 3772.5,419.5C 3772.67,408.495 3772.5,397.495 3772,386.5C 3768.1,379.537 3762.6,378.037 3755.5,382C 3753.96,383.579 3752.79,385.413 3752,387.5C 3751.5,398.161 3751.33,408.828 3751.5,419.5C 3749.17,419.5 3746.83,419.5 3744.5,419.5C 3744.5,404.167 3744.5,388.833 3744.5,373.5C 3746.83,373.5 3749.17,373.5 3751.5,373.5C 3751.28,374.675 3751.61,375.675 3752.5,376.5C 3755.29,374.432 3758.29,373.098 3761.5,372.5 Z"/></g>
<g><path style="opacity:0.867" fill="#4b5c65" d="M 3807.5,372.5 C 3814.77,372.318 3821.44,374.151 3827.5,378C 3825.67,379.833 3823.83,381.667 3822,383.5C 3816.31,379.435 3810.15,378.601 3803.5,381C 3799.08,385.635 3799.74,389.301 3805.5,392C 3811.62,392.353 3817.62,393.353 3823.5,395C 3831.39,402.205 3831.39,409.539 3823.5,417C 3814.99,421.215 3806.32,421.549 3797.5,418C 3795.03,416.784 3793.03,415.117 3791.5,413C 3792.33,410.833 3793.83,409.333 3796,408.5C 3802.55,413.45 3809.72,414.617 3817.5,412C 3821.82,409.217 3822.49,405.717 3819.5,401.5C 3813.25,400.006 3806.92,398.839 3800.5,398C 3797.33,396.833 3795.17,394.667 3794,391.5C 3792.11,380.568 3796.61,374.235 3807.5,372.5 Z"/></g>
<g><path style="opacity:0.868" fill="#4b5c65" d="M 3883.5,372.5 C 3899.74,373.422 3907.08,382.089 3905.5,398.5C 3895.15,398.168 3884.81,398.501 3874.5,399.5C 3878.48,414.161 3886.81,417.161 3899.5,408.5C 3901.75,409.124 3903.42,410.457 3904.5,412.5C 3899.28,418.631 3892.61,421.131 3884.5,420C 3875.45,418.621 3869.95,413.455 3868,404.5C 3865.19,392.894 3868.02,383.061 3876.5,375C 3879,374.302 3881.34,373.469 3883.5,372.5 Z M 3883.5,379.5 C 3892.67,379 3897.33,383.333 3897.5,392.5C 3890.17,392.5 3882.83,392.5 3875.5,392.5C 3874.95,386.073 3877.62,381.74 3883.5,379.5 Z"/></g>
<g><path style="opacity:0.855" fill="#4b5c65" d="M 3933.5,372.5 C 3937.22,372.564 3940.89,373.064 3944.5,374C 3947.49,375.315 3949.83,377.315 3951.5,380C 3950.67,382.167 3949.17,383.667 3947,384.5C 3938.54,377.282 3931.21,378.282 3925,387.5C 3922.79,394.307 3923.12,400.973 3926,407.5C 3932.65,415.079 3939.65,415.413 3947,408.5C 3953.03,411.81 3952.86,414.977 3946.5,418C 3927.36,423.711 3917.03,416.544 3915.5,396.5C 3915.28,383.518 3921.28,375.518 3933.5,372.5 Z"/></g>
<g><path style="opacity:0.859" fill="#4b5c65" d="M 4031.5,372.5 C 4039.97,371.813 4046.13,375.147 4050,382.5C 4051.42,394.772 4051.92,407.105 4051.5,419.5C 4048.83,419.5 4046.17,419.5 4043.5,419.5C 4043.67,408.495 4043.5,397.495 4043,386.5C 4039.47,380.102 4034.31,378.269 4027.5,381C 4025.19,382.637 4023.69,384.804 4023,387.5C 4022.5,398.161 4022.33,408.828 4022.5,419.5C 4019.83,419.5 4017.17,419.5 4014.5,419.5C 4014.5,404.167 4014.5,388.833 4014.5,373.5C 4017.17,373.5 4019.83,373.5 4022.5,373.5C 4022.35,374.552 4022.52,375.552 4023,376.5C 4025.74,374.711 4028.57,373.378 4031.5,372.5 Z"/></g>
<g><path style="opacity:0.989" fill="#4b5c65" d="M 3672.5,373.5 C 3674.83,373.5 3677.17,373.5 3679.5,373.5C 3679.5,388.833 3679.5,404.167 3679.5,419.5C 3677.17,419.5 3674.83,419.5 3672.5,419.5C 3672.5,404.167 3672.5,388.833 3672.5,373.5 Z"/></g>
<g><path style="opacity:0.954" fill="#4b5c65" d="M 4066.5,373.5 C 4068.83,373.5 4071.17,373.5 4073.5,373.5C 4073.5,388.833 4073.5,404.167 4073.5,419.5C 4071.17,419.5 4068.83,419.5 4066.5,419.5C 4066.5,404.167 4066.5,388.833 4066.5,373.5 Z"/></g>
<g><path style="opacity:0.918" fill="#4b5c65" d="M 136.5,607.5 C 130.833,607.5 125.167,607.5 119.5,607.5C 111.811,603.614 107.311,597.28 106,588.5C 104,570.167 104,551.833 106,533.5C 109.523,516.676 119.69,510.51 136.5,515C 145.627,520.08 149.96,527.913 149.5,538.5C 145.5,538.5 141.5,538.5 137.5,538.5C 138.047,530.891 134.714,526.224 127.5,524.5C 121.579,525.62 118.413,529.287 118,535.5C 117.65,544.01 117.15,552.51 116.5,561C 117.15,569.49 117.65,577.99 118,586.5C 118.985,595.846 123.818,599.013 132.5,596C 136.023,592.602 137.689,588.436 137.5,583.5C 141.5,583.5 145.5,583.5 149.5,583.5C 149.83,594.181 145.497,602.181 136.5,607.5 Z"/></g>
<g><path style="opacity:0.923" fill="#4b5c65" d="M 349.5,607.5 C 343.5,607.5 337.5,607.5 331.5,607.5C 321.351,602.495 317.017,594.162 318.5,582.5C 322.5,582.5 326.5,582.5 330.5,582.5C 330.8,596.683 336.967,600.35 349,593.5C 352.511,585.075 352.011,576.909 347.5,569C 339.467,565.567 331.634,561.733 324,557.5C 323,555.833 322,554.167 321,552.5C 319.443,545.247 319.11,537.914 320,530.5C 322.863,519.477 330.03,513.81 341.5,513.5C 356.797,514.801 363.797,523.134 362.5,538.5C 358.5,538.5 354.5,538.5 350.5,538.5C 351.488,527.644 346.822,523.478 336.5,526C 332.485,529.371 330.818,533.704 331.5,539C 330.781,543.464 332.114,547.131 335.5,550C 342.621,553.148 349.621,556.481 356.5,560C 359.231,562.626 361.064,565.793 362,569.5C 364,577.833 364,586.167 362,594.5C 360.318,601.347 356.151,605.68 349.5,607.5 Z"/></g>
<g><path style="opacity:0.922" fill="#4b5c65" d="M 407.5,607.5 C 401.833,607.5 396.167,607.5 390.5,607.5C 382,603.187 377.5,596.187 377,586.5C 376.333,569.5 376.333,552.5 377,535.5C 380.628,516.265 391.795,509.765 410.5,516C 417.775,521.628 421.108,529.128 420.5,538.5C 416.5,538.5 412.5,538.5 408.5,538.5C 408.486,526.093 402.986,522.426 392,527.5C 390.395,530.648 389.395,533.981 389,537.5C 388.333,553.167 388.333,568.833 389,584.5C 389.422,595.273 394.588,598.94 404.5,595.5C 407.62,592.139 408.954,588.139 408.5,583.5C 412.5,583.5 416.5,583.5 420.5,583.5C 421.325,594.53 416.992,602.53 407.5,607.5 Z"/></g>
<g><path style="opacity:0.925" fill="#4b5c65" d="M 667.5,607.5 C 661.833,607.5 656.167,607.5 650.5,607.5C 643.935,604.095 639.768,598.761 638,591.5C 636.416,573.205 636.082,554.872 637,536.5C 639.185,517.979 649.352,510.812 667.5,515C 675.426,518.602 679.926,524.769 681,533.5C 683,551.833 683,570.167 681,588.5C 679.72,597.257 675.22,603.591 667.5,607.5 Z M 656.5,524.5 C 662.264,523.798 666.097,526.131 668,531.5C 671.333,551.167 671.333,570.833 668,590.5C 663.215,598.858 657.549,599.525 651,592.5C 650.012,589.576 649.346,586.576 649,583.5C 648.333,568.5 648.333,553.5 649,538.5C 648.797,532.201 651.297,527.535 656.5,524.5 Z"/></g>
<g><path style="opacity:0.918" fill="#4b5c65" d="M 728.5,607.5 C 722.833,607.5 717.167,607.5 711.5,607.5C 703.896,604.012 699.396,598.012 698,589.5C 696.576,574.524 696.243,559.524 697,544.5C 696.503,535.82 698.503,527.82 703,520.5C 710.334,513.609 718.834,511.776 728.5,515C 737.619,520.064 741.953,527.897 741.5,538.5C 737.5,538.5 733.5,538.5 729.5,538.5C 729.926,529.095 725.592,524.595 716.5,525C 712.529,526.88 710.363,530.047 710,534.5C 708,552.167 708,569.833 710,587.5C 711.529,596.177 716.362,599.01 724.5,596C 727.904,592.572 729.571,588.405 729.5,583.5C 733.5,583.5 737.5,583.5 741.5,583.5C 741.821,594.203 737.487,602.203 728.5,607.5 Z"/></g>
<g><path style="opacity:0.924" fill="#4b5c65" d="M 846.5,607.5 C 840.5,607.5 834.5,607.5 828.5,607.5C 818.184,602.544 813.851,594.21 815.5,582.5C 819.5,582.5 823.5,582.5 827.5,582.5C 826.842,593.688 831.842,598.188 842.5,596C 844.815,594.891 846.315,593.057 847,590.5C 847.667,584.833 847.667,579.167 847,573.5C 845.878,571.376 844.378,569.543 842.5,568C 836.5,565.333 830.5,562.667 824.5,560C 820.42,557.688 817.92,554.188 817,549.5C 814.812,540.147 815.812,531.147 820,522.5C 831.701,510.875 843.701,510.542 856,521.5C 858.868,526.801 860.035,532.467 859.5,538.5C 855.5,538.5 851.5,538.5 847.5,538.5C 847.265,526.39 841.765,522.724 831,527.5C 828.54,533.245 827.873,539.245 829,545.5C 830.122,547.624 831.622,549.457 833.5,551C 841.672,553.669 849.172,557.502 856,562.5C 856.667,563.833 857.333,565.167 858,566.5C 860.27,577.606 859.937,588.606 857,599.5C 854.145,603.211 850.645,605.877 846.5,607.5 Z"/></g>
<g><path style="opacity:0.918" fill="#4b5c65" d="M 904.5,607.5 C 898.833,607.5 893.167,607.5 887.5,607.5C 879.825,603.625 875.325,597.291 874,588.5C 873.642,579.491 873.142,570.491 872.5,561.5C 873.151,552.176 873.651,542.842 874,533.5C 877.78,517.02 887.947,510.853 904.5,515C 914.121,519.814 918.454,527.647 917.5,538.5C 913.5,538.5 909.5,538.5 905.5,538.5C 906.021,531.18 902.854,526.513 896,524.5C 889.72,525.346 886.386,529.012 886,535.5C 885.333,552.5 885.333,569.5 886,586.5C 886.985,595.846 891.818,599.013 900.5,596C 904.023,592.602 905.689,588.436 905.5,583.5C 909.5,583.5 913.5,583.5 917.5,583.5C 917.833,594.175 913.5,602.175 904.5,607.5 Z"/></g>
<g><path style="opacity:0.925" fill="#4b5c65" d="M 1643.5,607.5 C 1637.17,607.5 1630.83,607.5 1624.5,607.5C 1614.72,602.277 1610.39,593.944 1611.5,582.5C 1615.5,582.5 1619.5,582.5 1623.5,582.5C 1623.02,594.203 1628.36,598.703 1639.5,596C 1641.89,594.048 1643.39,591.548 1644,588.5C 1644.67,584.167 1644.67,579.833 1644,575.5C 1643.39,572.452 1641.89,569.952 1639.5,568C 1632.75,565.194 1626.08,562.194 1619.5,559C 1614.12,553.673 1611.79,547.173 1612.5,539.5C 1612.97,518.925 1623.3,510.759 1643.5,515C 1653.11,519.712 1657.45,527.545 1656.5,538.5C 1652.5,538.5 1648.5,538.5 1644.5,538.5C 1644.61,527.754 1639.61,523.587 1629.5,526C 1624.37,532.074 1623.2,538.907 1626,546.5C 1626.47,547.931 1627.3,549.097 1628.5,550C 1635.17,553 1641.83,556 1648.5,559C 1655.02,565.219 1657.69,572.886 1656.5,582C 1657,588.494 1655.83,594.661 1653,600.5C 1650.21,603.465 1647.04,605.798 1643.5,607.5 Z"/></g>
<g><path style="opacity:0.923" fill="#4b5c65" d="M 1701.5,607.5 C 1695.5,607.5 1689.5,607.5 1683.5,607.5C 1673.19,602.551 1668.85,594.218 1670.5,582.5C 1674.5,582.5 1678.5,582.5 1682.5,582.5C 1682.41,595.605 1688.24,599.605 1700,594.5C 1704.33,585.952 1704.16,577.452 1699.5,569C 1691.44,565.551 1683.6,561.718 1676,557.5C 1675,555.833 1674,554.167 1673,552.5C 1671.44,544.913 1671.1,537.246 1672,529.5C 1675.3,519.034 1682.47,513.701 1693.5,513.5C 1708.8,514.801 1715.8,523.134 1714.5,538.5C 1710.5,538.5 1706.5,538.5 1702.5,538.5C 1703.2,527.041 1698.2,523.041 1687.5,526.5C 1684.11,529.763 1682.78,533.763 1683.5,538.5C 1682.76,543.121 1684.09,546.954 1687.5,550C 1694.62,553.148 1701.62,556.481 1708.5,560C 1711.23,562.626 1713.06,565.793 1714,569.5C 1716,577.833 1716,586.167 1714,594.5C 1712.32,601.347 1708.15,605.68 1701.5,607.5 Z"/></g>
<g><path style="opacity:0.934" fill="#4b5c65" d="M -0.5,514.5 C 13.5,514.5 27.5,514.5 41.5,514.5C 41.5,518.167 41.5,521.833 41.5,525.5C 36.5,525.5 31.5,525.5 26.5,525.5C 26.5,552.833 26.5,580.167 26.5,607.5C 22.5,607.5 18.5,607.5 14.5,607.5C 14.5,580.167 14.5,552.833 14.5,525.5C 9.5,525.5 4.5,525.5 -0.5,525.5C -0.5,521.833 -0.5,518.167 -0.5,514.5 Z"/></g>
<g><path style="opacity:0.929" fill="#4b5c65" d="M 92.5,607.5 C 80.5,607.5 68.5,607.5 56.5,607.5C 56.5,576.5 56.5,545.5 56.5,514.5C 68.5,514.5 80.5,514.5 92.5,514.5C 92.5,518.167 92.5,521.833 92.5,525.5C 84.5,525.5 76.5,525.5 68.5,525.5C 68.5,535.5 68.5,545.5 68.5,555.5C 75.5,555.5 82.5,555.5 89.5,555.5C 89.5,559.167 89.5,562.833 89.5,566.5C 82.5,566.5 75.5,566.5 68.5,566.5C 68.5,576.5 68.5,586.5 68.5,596.5C 76.5,596.5 84.5,596.5 92.5,596.5C 92.5,600.167 92.5,603.833 92.5,607.5 Z"/></g>
<g><path style="opacity:0.929" fill="#4b5c65" d="M 208.5,607.5 C 204.5,607.5 200.5,607.5 196.5,607.5C 196.5,593.5 196.5,579.5 196.5,565.5C 189.833,565.5 183.167,565.5 176.5,565.5C 176.5,579.5 176.5,593.5 176.5,607.5C 172.5,607.5 168.5,607.5 164.5,607.5C 164.5,576.5 164.5,545.5 164.5,514.5C 168.5,514.5 172.5,514.5 176.5,514.5C 176.5,527.833 176.5,541.167 176.5,554.5C 183.167,554.5 189.833,554.5 196.5,554.5C 196.5,541.167 196.5,527.833 196.5,514.5C 200.5,514.5 204.5,514.5 208.5,514.5C 208.5,545.5 208.5,576.5 208.5,607.5 Z"/></g>
<g><path style="opacity:0.939" fill="#4b5c65" d="M 271.5,607.5 C 267.833,607.5 264.167,607.5 260.5,607.5C 253.625,588.079 246.458,568.745 239,549.5C 238.5,568.83 238.333,588.164 238.5,607.5C 234.5,607.5 230.5,607.5 226.5,607.5C 226.5,576.5 226.5,545.5 226.5,514.5C 230.226,514.177 233.893,514.511 237.5,515.5C 244.667,534.5 251.833,553.5 259,572.5C 259.5,553.17 259.667,533.836 259.5,514.5C 263.5,514.5 267.5,514.5 271.5,514.5C 271.5,545.5 271.5,576.5 271.5,607.5 Z"/></g>
<g><path style="opacity:0.928" fill="#4b5c65" d="M 303.5,607.5 C 299.5,607.5 295.5,607.5 291.5,607.5C 291.5,576.5 291.5,545.5 291.5,514.5C 295.5,514.5 299.5,514.5 303.5,514.5C 303.5,545.5 303.5,576.5 303.5,607.5 Z"/></g>
<g><path style="opacity:0.932" fill="#4b5c65" d="M 478.5,607.5 C 474.5,607.5 470.5,607.5 466.5,607.5C 466.5,593.5 466.5,579.5 466.5,565.5C 460.167,565.5 453.833,565.5 447.5,565.5C 447.5,579.5 447.5,593.5 447.5,607.5C 443.5,607.5 439.5,607.5 435.5,607.5C 435.5,576.5 435.5,545.5 435.5,514.5C 439.5,514.5 443.5,514.5 447.5,514.5C 447.5,527.833 447.5,541.167 447.5,554.5C 453.833,554.5 460.167,554.5 466.5,554.5C 466.5,541.167 466.5,527.833 466.5,514.5C 470.5,514.5 474.5,514.5 478.5,514.5C 478.5,545.5 478.5,576.5 478.5,607.5 Z"/></g>
<g><path style="opacity:0.93" fill="#4b5c65" d="M 532.5,607.5 C 520.5,607.5 508.5,607.5 496.5,607.5C 496.5,576.5 496.5,545.5 496.5,514.5C 508.5,514.5 520.5,514.5 532.5,514.5C 532.5,518.167 532.5,521.833 532.5,525.5C 524.5,525.5 516.5,525.5 508.5,525.5C 508.5,535.5 508.5,545.5 508.5,555.5C 515.5,555.5 522.5,555.5 529.5,555.5C 529.5,559.167 529.5,562.833 529.5,566.5C 522.5,566.5 515.5,566.5 508.5,566.5C 508.5,576.5 508.5,586.5 508.5,596.5C 516.5,596.5 524.5,596.5 532.5,596.5C 532.5,600.167 532.5,603.833 532.5,607.5 Z"/></g>
<g><path style="opacity:0.942" fill="#4b5c65" d="M 620.5,607.5 C 616.5,607.5 612.5,607.5 608.5,607.5C 608.5,593.5 608.5,579.5 608.5,565.5C 602.167,565.5 595.833,565.5 589.5,565.5C 589.5,579.5 589.5,593.5 589.5,607.5C 585.5,607.5 581.5,607.5 577.5,607.5C 577.5,576.5 577.5,545.5 577.5,514.5C 581.5,514.5 585.5,514.5 589.5,514.5C 589.5,527.833 589.5,541.167 589.5,554.5C 595.833,554.5 602.167,554.5 608.5,554.5C 608.5,541.167 608.5,527.833 608.5,514.5C 612.5,514.5 616.5,514.5 620.5,514.5C 620.5,545.5 620.5,576.5 620.5,607.5 Z"/></g>
<g><path style="opacity:0.907" fill="#4b5c65" d="M 800.5,607.5 C 796.167,607.5 791.833,607.5 787.5,607.5C 787.5,593.5 787.5,579.5 787.5,565.5C 781.167,565.5 774.833,565.5 768.5,565.5C 768.5,579.5 768.5,593.5 768.5,607.5C 764.5,607.5 760.5,607.5 756.5,607.5C 756.5,576.5 756.5,545.5 756.5,514.5C 760.5,514.5 764.5,514.5 768.5,514.5C 768.5,527.833 768.5,541.167 768.5,554.5C 774.833,554.5 781.167,554.5 787.5,554.5C 787.5,541.167 787.5,527.833 787.5,514.5C 791.833,514.5 796.167,514.5 800.5,514.5C 800.5,545.5 800.5,576.5 800.5,607.5 Z"/></g>
<g><path style="opacity:0.942" fill="#4b5c65" d="M 975.5,607.5 C 971.5,607.5 967.5,607.5 963.5,607.5C 963.5,593.5 963.5,579.5 963.5,565.5C 957.167,565.5 950.833,565.5 944.5,565.5C 944.5,579.5 944.5,593.5 944.5,607.5C 940.5,607.5 936.5,607.5 932.5,607.5C 932.5,576.5 932.5,545.5 932.5,514.5C 936.5,514.5 940.5,514.5 944.5,514.5C 944.5,527.833 944.5,541.167 944.5,554.5C 950.833,554.5 957.167,554.5 963.5,554.5C 963.5,541.167 963.5,527.833 963.5,514.5C 967.5,514.5 971.5,514.5 975.5,514.5C 975.5,545.5 975.5,576.5 975.5,607.5 Z"/></g>
<g><path style="opacity:0.909" fill="#4b5c65" d="M 1022.5,607.5 C 1017.17,607.5 1011.83,607.5 1006.5,607.5C 997.823,603.852 993.323,597.186 993,587.5C 992.5,563.169 992.333,538.836 992.5,514.5C 996.833,514.5 1001.17,514.5 1005.5,514.5C 1005.33,540.169 1005.5,565.835 1006,591.5C 1009.16,596.998 1013.66,598.498 1019.5,596C 1021.89,594.048 1023.39,591.548 1024,588.5C 1024.5,563.836 1024.67,539.169 1024.5,514.5C 1028.5,514.5 1032.5,514.5 1036.5,514.5C 1036.67,539.836 1036.5,565.169 1036,590.5C 1034.59,598.732 1030.09,604.399 1022.5,607.5 Z"/></g>
<g><path style="opacity:0.923" fill="#4b5c65" d="M 1090.5,607.5 C 1078.17,607.5 1065.83,607.5 1053.5,607.5C 1053.5,576.5 1053.5,545.5 1053.5,514.5C 1057.5,514.5 1061.5,514.5 1065.5,514.5C 1065.5,541.833 1065.5,569.167 1065.5,596.5C 1073.83,596.5 1082.17,596.5 1090.5,596.5C 1090.5,600.167 1090.5,603.833 1090.5,607.5 Z"/></g>
<g><path style="opacity:0.932" fill="#4b5c65" d="M 1140.5,607.5 C 1128.5,607.5 1116.5,607.5 1104.5,607.5C 1104.5,576.5 1104.5,545.5 1104.5,514.5C 1116.5,514.5 1128.5,514.5 1140.5,514.5C 1140.5,518.167 1140.5,521.833 1140.5,525.5C 1132.5,525.5 1124.5,525.5 1116.5,525.5C 1116.5,535.5 1116.5,545.5 1116.5,555.5C 1123.5,555.5 1130.5,555.5 1137.5,555.5C 1137.5,559.167 1137.5,562.833 1137.5,566.5C 1130.5,566.5 1123.5,566.5 1116.5,566.5C 1116.5,576.5 1116.5,586.5 1116.5,596.5C 1124.5,596.5 1132.5,596.5 1140.5,596.5C 1140.5,600.167 1140.5,603.833 1140.5,607.5 Z"/></g>
<g><path style="opacity:0.926" fill="#4b5c65" d="M 1243.5,607.5 C 1239.5,607.5 1235.5,607.5 1231.5,607.5C 1231.67,587.164 1231.5,566.831 1231,546.5C 1226.93,558.87 1222.77,571.204 1218.5,583.5C 1215.57,584.484 1212.57,584.817 1209.5,584.5C 1205.84,571.685 1201.67,559.018 1197,546.5C 1196.5,566.831 1196.33,587.164 1196.5,607.5C 1192.5,607.5 1188.5,607.5 1184.5,607.5C 1184.5,576.5 1184.5,545.5 1184.5,514.5C 1188.55,514.176 1192.55,514.509 1196.5,515.5C 1202.43,531.462 1208.27,547.462 1214,563.5C 1220.38,547.689 1226.38,531.689 1232,515.5C 1235.73,514.54 1239.56,514.207 1243.5,514.5C 1243.5,545.5 1243.5,576.5 1243.5,607.5 Z"/></g>
<g><path style="opacity:0.928" fill="#4b5c65" d="M 1273.5,607.5 C 1269.5,607.5 1265.5,607.5 1261.5,607.5C 1261.5,576.5 1261.5,545.5 1261.5,514.5C 1265.5,514.5 1269.5,514.5 1273.5,514.5C 1273.5,545.5 1273.5,576.5 1273.5,607.5 Z"/></g>
<g><path style="opacity:0.927" fill="#4b5c65" d="M 1314.5,607.5 C 1310.5,607.5 1306.5,607.5 1302.5,607.5C 1302.5,580.167 1302.5,552.833 1302.5,525.5C 1297.5,525.5 1292.5,525.5 1287.5,525.5C 1287.5,521.833 1287.5,518.167 1287.5,514.5C 1301.83,514.5 1316.17,514.5 1330.5,514.5C 1330.5,518.167 1330.5,521.833 1330.5,525.5C 1325.17,525.5 1319.83,525.5 1314.5,525.5C 1314.5,552.833 1314.5,580.167 1314.5,607.5 Z"/></g>
<g><path style="opacity:0.891" fill="#4b5c65" d="M 1369.5,607.5 C 1365.17,607.5 1360.83,607.5 1356.5,607.5C 1356.5,580.167 1356.5,552.833 1356.5,525.5C 1351.5,525.5 1346.5,525.5 1341.5,525.5C 1341.5,521.833 1341.5,518.167 1341.5,514.5C 1355.83,514.5 1370.17,514.5 1384.5,514.5C 1384.5,518.167 1384.5,521.833 1384.5,525.5C 1379.5,525.5 1374.5,525.5 1369.5,525.5C 1369.5,552.833 1369.5,580.167 1369.5,607.5 Z"/></g>
<g><path style="opacity:0.93" fill="#4b5c65" d="M 1434.5,607.5 C 1422.5,607.5 1410.5,607.5 1398.5,607.5C 1398.5,576.5 1398.5,545.5 1398.5,514.5C 1410.5,514.5 1422.5,514.5 1434.5,514.5C 1434.5,518.167 1434.5,521.833 1434.5,525.5C 1426.5,525.5 1418.5,525.5 1410.5,525.5C 1410.5,535.5 1410.5,545.5 1410.5,555.5C 1417.5,555.5 1424.5,555.5 1431.5,555.5C 1431.5,559.167 1431.5,562.833 1431.5,566.5C 1424.5,566.5 1417.5,566.5 1410.5,566.5C 1410.5,576.5 1410.5,586.5 1410.5,596.5C 1418.5,596.5 1426.5,596.5 1434.5,596.5C 1434.5,600.167 1434.5,603.833 1434.5,607.5 Z"/></g>
<g><path style="opacity:0.932" fill="#4b5c65" d="M 1486.5,607.5 C 1474.5,607.5 1462.5,607.5 1450.5,607.5C 1450.5,576.5 1450.5,545.5 1450.5,514.5C 1454.5,514.5 1458.5,514.5 1462.5,514.5C 1462.5,541.833 1462.5,569.167 1462.5,596.5C 1470.5,596.5 1478.5,596.5 1486.5,596.5C 1486.5,600.167 1486.5,603.833 1486.5,607.5 Z"/></g>
<g><path style="opacity:0.942" fill="#4b5c65" d="M 1544.5,607.5 C 1540.5,607.5 1536.5,607.5 1532.5,607.5C 1532.5,593.5 1532.5,579.5 1532.5,565.5C 1526.17,565.5 1519.83,565.5 1513.5,565.5C 1513.5,579.5 1513.5,593.5 1513.5,607.5C 1509.5,607.5 1505.5,607.5 1501.5,607.5C 1501.5,576.5 1501.5,545.5 1501.5,514.5C 1505.5,514.5 1509.5,514.5 1513.5,514.5C 1513.5,527.833 1513.5,541.167 1513.5,554.5C 1519.83,554.5 1526.17,554.5 1532.5,554.5C 1532.5,541.167 1532.5,527.833 1532.5,514.5C 1536.5,514.5 1540.5,514.5 1544.5,514.5C 1544.5,545.5 1544.5,576.5 1544.5,607.5 Z"/></g>
<g><path style="opacity:0.932" fill="#4b5c65" d="M 1598.5,607.5 C 1586.5,607.5 1574.5,607.5 1562.5,607.5C 1562.5,576.5 1562.5,545.5 1562.5,514.5C 1574.5,514.5 1586.5,514.5 1598.5,514.5C 1598.5,518.167 1598.5,521.833 1598.5,525.5C 1590.5,525.5 1582.5,525.5 1574.5,525.5C 1574.5,535.5 1574.5,545.5 1574.5,555.5C 1581.5,555.5 1588.5,555.5 1595.5,555.5C 1595.5,559.167 1595.5,562.833 1595.5,566.5C 1588.5,566.5 1581.5,566.5 1574.5,566.5C 1574.5,576.5 1574.5,586.5 1574.5,596.5C 1582.5,596.5 1590.5,596.5 1598.5,596.5C 1598.5,600.167 1598.5,603.833 1598.5,607.5 Z"/></g>
<g><path style="opacity:0.921" fill="#4b5c65" d="M 1767.5,607.5 C 1755.17,607.5 1742.83,607.5 1730.5,607.5C 1730.5,576.5 1730.5,545.5 1730.5,514.5C 1742.83,514.5 1755.17,514.5 1767.5,514.5C 1767.5,518.167 1767.5,521.833 1767.5,525.5C 1759.17,525.5 1750.83,525.5 1742.5,525.5C 1742.5,535.5 1742.5,545.5 1742.5,555.5C 1749.5,555.5 1756.5,555.5 1763.5,555.5C 1763.5,559.167 1763.5,562.833 1763.5,566.5C 1756.5,566.5 1749.5,566.5 1742.5,566.5C 1742.5,576.5 1742.5,586.5 1742.5,596.5C 1750.83,596.5 1759.17,596.5 1767.5,596.5C 1767.5,600.167 1767.5,603.833 1767.5,607.5 Z"/></g>
<g><path style="opacity:0.933" fill="#4b5c65" d="M 1828.5,607.5 C 1824.83,607.5 1821.17,607.5 1817.5,607.5C 1809.91,587.901 1802.41,568.234 1795,548.5C 1794.5,568.164 1794.33,587.831 1794.5,607.5C 1790.5,607.5 1786.5,607.5 1782.5,607.5C 1782.5,576.5 1782.5,545.5 1782.5,514.5C 1786.44,514.207 1790.27,514.54 1794,515.5C 1801.53,535.089 1808.86,554.756 1816,574.5C 1816.5,554.503 1816.67,534.503 1816.5,514.5C 1820.5,514.5 1824.5,514.5 1828.5,514.5C 1828.5,545.5 1828.5,576.5 1828.5,607.5 Z"/></g>
</svg>
