<?xml version="1.0" encoding="UTF-8"?>
<!DOCTYPE svg PUBLIC "-//W3C//DTD SVG 1.1//EN" "http://www.w3.org/Graphics/SVG/1.1/DTD/svg11.dtd">
<svg xmlns="http://www.w3.org/2000/svg" version="1.1" width="4778px" height="608px" style="shape-rendering:geometricPrecision; text-rendering:geometricPrecision; image-rendering:optimizeQuality; fill-rule:evenodd; clip-rule:evenodd" xmlns:xlink="http://www.w3.org/1999/xlink">
<g><path style="opacity:0.99" fill="#4b5c65" d="M 113.5,-0.5 C 139.167,-0.5 164.833,-0.5 190.5,-0.5C 190.5,25.1667 190.5,50.8333 190.5,76.5C 164.833,76.5 139.167,76.5 113.5,76.5C 113.5,50.8333 113.5,25.1667 113.5,-0.5 Z"/></g>
<g><path style="opacity:0.99" fill="#4b5c65" d="M 228.5,-0.5 C 254.167,-0.5 279.833,-0.5 305.5,-0.5C 305.5,25.1667 305.5,50.8333 305.5,76.5C 279.833,76.5 254.167,76.5 228.5,76.5C 228.5,50.8333 228.5,25.1667 228.5,-0.5 Z"/></g>
<g><path style="opacity:0.953" fill="#4b5c65" d="M 452.5,-0.5 C 456.167,-0.5 459.833,-0.5 463.5,-0.5C 463.5,139.833 463.5,280.167 463.5,420.5C 459.833,420.5 456.167,420.5 452.5,420.5C 452.5,280.167 452.5,139.833 452.5,-0.5 Z"/></g>
<g><path style="opacity:0.992" fill="#7fba25" d="M 610.5,-0.5 C 715.167,-0.5 819.833,-0.5 924.5,-0.5C 924.5,25.1667 924.5,50.8333 924.5,76.5C 886.5,76.5 848.5,76.5 810.5,76.5C 810.5,191.167 810.5,305.833 810.5,420.5C 781.833,420.5 753.167,420.5 724.5,420.5C 724.5,305.833 724.5,191.167 724.5,76.5C 686.5,76.5 648.5,76.5 610.5,76.5C 610.5,50.8333 610.5,25.1667 610.5,-0.5 Z"/></g>
<g><path style="opacity:0.992" fill="#7fba25" d="M 1018.5,-0.5 C 1047.17,-0.5 1075.83,-0.5 1104.5,-0.5C 1104.5,55.8333 1104.5,112.167 1104.5,168.5C 1153.5,168.5 1202.5,168.5 1251.5,168.5C 1251.5,112.167 1251.5,55.8333 1251.5,-0.5C 1280.17,-0.5 1308.83,-0.5 1337.5,-0.5C 1337.5,139.833 1337.5,280.167 1337.5,420.5C 1308.83,420.5 1280.17,420.5 1251.5,420.5C 1251.5,361.833 1251.5,303.167 1251.5,244.5C 1202.5,244.5 1153.5,244.5 1104.5,244.5C 1104.5,303.167 1104.5,361.833 1104.5,420.5C 1075.83,420.5 1047.17,420.5 1018.5,420.5C 1018.5,280.167 1018.5,139.833 1018.5,-0.5 Z"/></g>
<g><path style="opacity:0.986" fill="#7fba25" d="M 1431.5,-0.5 C 1460.17,-0.5 1488.83,-0.5 1517.5,-0.5C 1554.72,77.6 1592.22,155.6 1630,233.5C 1668.31,155.875 1705.81,77.8746 1742.5,-0.5C 1771.17,-0.5 1799.83,-0.5 1828.5,-0.5C 1828.5,139.833 1828.5,280.167 1828.5,420.5C 1799.5,420.5 1770.5,420.5 1741.5,420.5C 1741.67,342.499 1741.5,264.499 1741,186.5C 1714.63,238.745 1688.13,290.911 1661.5,343C 1640.49,343.833 1619.49,343.666 1598.5,342.5C 1572,290.167 1545.5,237.833 1519,185.5C 1518.5,263.833 1518.33,342.166 1518.5,420.5C 1489.5,420.5 1460.5,420.5 1431.5,420.5C 1431.5,280.167 1431.5,139.833 1431.5,-0.5 Z"/></g>
<g><path style="opacity:0.874" fill="#4b5c65" d="M 1974.5,-0.5 C 1978.5,-0.5 1982.5,-0.5 1986.5,-0.5C 1986.5,139.833 1986.5,280.167 1986.5,420.5C 1982.5,420.5 1978.5,420.5 1974.5,420.5C 1974.5,280.167 1974.5,139.833 1974.5,-0.5 Z"/></g>
<g><path style="opacity:0.968" fill="#4b5c65" d="M 2180.5,-0.5 C 2188.83,-0.5 2197.17,-0.5 2205.5,-0.5C 2232.99,5.99228 2248.65,23.3256 2252.5,51.5C 2241.5,51.5 2230.5,51.5 2219.5,51.5C 2214.52,32.0029 2202.19,24.8362 2182.5,30C 2171.35,35.1829 2165.85,44.0162 2166,56.5C 2165.11,75.8641 2165.44,95.1975 2167,114.5C 2173.39,132.778 2185.89,138.945 2204.5,133C 2212.49,128.876 2217.49,122.376 2219.5,113.5C 2230.48,112.501 2241.48,112.168 2252.5,112.5C 2245.47,149.34 2223.14,166.507 2185.5,164C 2165.59,161.968 2150.43,152.468 2140,135.5C 2135.14,122.997 2132.81,109.997 2133,96.5C 2132.01,77.0568 2133.01,57.7235 2136,38.5C 2143.57,17.0857 2158.41,4.0857 2180.5,-0.5 Z"/></g>
<g><path style="opacity:0.967" fill="#4b5c65" d="M 2934.5,-0.5 C 2944.17,-0.5 2953.83,-0.5 2963.5,-0.5C 2977.39,1.85897 2989.55,7.85897 3000,17.5C 2994.54,25.143 2988.04,32.143 2980.5,38.5C 2965.07,26.6618 2948.4,24.4951 2930.5,32C 2919.31,42.9762 2919.98,52.9762 2932.5,62C 2946.06,65.1286 2959.73,67.7953 2973.5,70C 2991,74.5024 3001.17,85.6691 3004,103.5C 3008,134.151 2995.17,153.651 2965.5,162C 2942.2,167.004 2919.86,164.337 2898.5,154C 2893.37,150.703 2888.71,146.87 2884.5,142.5C 2891.17,135.167 2898.17,128.167 2905.5,121.5C 2920.5,133.47 2937.5,137.637 2956.5,134C 2969.37,130.768 2974.54,122.601 2972,109.5C 2970.08,103.279 2965.91,99.4458 2959.5,98C 2947.44,96.3263 2935.44,94.3263 2923.5,92C 2897.8,83.465 2887.3,65.6317 2892,38.5C 2894.86,23.9888 2902.69,13.1555 2915.5,6C 2921.71,3.09824 2928.04,0.931571 2934.5,-0.5 Z"/></g>
<g><path style="opacity:0.953" fill="#4b5c65" d="M 3469.5,-0.5 C 3473.17,-0.5 3476.83,-0.5 3480.5,-0.5C 3480.5,139.833 3480.5,280.167 3480.5,420.5C 3476.83,420.5 3473.17,420.5 3469.5,420.5C 3469.5,280.167 3469.5,139.833 3469.5,-0.5 Z"/></g>
<g><path style="opacity:0.968" fill="#4b5c65" d="M 3627.5,-0.5 C 3638.5,-0.5 3649.5,-0.5 3660.5,-0.5C 3673.9,27.9644 3687.57,56.2977 3701.5,84.5C 3715.98,56.5418 3729.65,28.2084 3742.5,-0.5C 3753.5,-0.5 3764.5,-0.5 3775.5,-0.5C 3775.5,53.5 3775.5,107.5 3775.5,161.5C 3764.5,161.5 3753.5,161.5 3742.5,161.5C 3742.67,131.165 3742.5,100.832 3742,70.5C 3732.5,89.5 3723,108.5 3713.5,127.5C 3705.61,128.814 3697.77,128.814 3690,127.5C 3680.08,108.656 3670.41,89.656 3661,70.5C 3660.5,100.832 3660.33,131.165 3660.5,161.5C 3649.5,161.5 3638.5,161.5 3627.5,161.5C 3627.5,107.5 3627.5,53.5 3627.5,-0.5 Z"/></g>
<g><path style="opacity:0.971" fill="#4b5c65" d="M 2317.5,0.5 C 2326.19,0.168631 2334.86,0.501964 2343.5,1.5C 2363.27,54.9782 2382.94,108.478 2402.5,162C 2391.17,162.667 2379.83,162.667 2368.5,162C 2365,152.998 2362,143.831 2359.5,134.5C 2340.5,134.333 2321.5,134.5 2302.5,135C 2299.36,144.077 2296.03,153.077 2292.5,162C 2281.17,162.667 2269.83,162.667 2258.5,162C 2278.27,108.193 2297.94,54.3599 2317.5,0.5 Z M 2330.5,50.5 C 2337.6,68.8068 2343.94,87.4734 2349.5,106.5C 2336.83,106.667 2324.16,106.5 2311.5,106C 2318.33,87.6679 2324.67,69.1679 2330.5,50.5 Z"/></g>
<g><path style="opacity:0.985" fill="#4b5c65" d="M 2421.5,0.5 C 2432.41,0.17966 2443.25,0.512993 2454,1.5C 2467.39,29.9553 2481.06,58.2887 2495,86.5C 2508.94,58.2887 2522.61,29.9553 2536,1.5C 2546.75,0.512993 2557.59,0.17966 2568.5,0.5C 2568.5,54.5 2568.5,108.5 2568.5,162.5C 2557.83,162.5 2547.17,162.5 2536.5,162.5C 2536.67,131.832 2536.5,101.165 2536,70.5C 2526.17,90.1667 2516.33,109.833 2506.5,129.5C 2498.83,130.833 2491.17,130.833 2483.5,129.5C 2473.92,110.011 2464.09,90.6774 2454,71.5C 2453.5,101.832 2453.33,132.165 2453.5,162.5C 2442.83,162.5 2432.17,162.5 2421.5,162.5C 2421.5,108.5 2421.5,54.5 2421.5,0.5 Z"/></g>
<g><path style="opacity:0.979" fill="#4b5c65" d="M 2605.5,0.5 C 2629.84,0.333365 2654.17,0.500031 2678.5,1C 2705.91,6.41533 2720.58,23.082 2722.5,51C 2721.34,78.0264 2707.67,94.6931 2681.5,101C 2666.87,102.351 2652.2,102.851 2637.5,102.5C 2637.5,122.5 2637.5,142.5 2637.5,162.5C 2626.83,162.5 2616.17,162.5 2605.5,162.5C 2605.5,108.5 2605.5,54.5 2605.5,0.5 Z M 2637.5,29.5 C 2648.84,29.3335 2660.17,29.5001 2671.5,30C 2685.44,33.3733 2691.28,42.2067 2689,56.5C 2687.26,63.4997 2683.1,68.3331 2676.5,71C 2663.57,72.4428 2650.57,72.9428 2637.5,72.5C 2637.5,58.1667 2637.5,43.8333 2637.5,29.5 Z"/></g>
<g><path style="opacity:0.97" fill="#4b5c65" d="M 2745.5,0.5 C 2756.17,0.5 2766.83,0.5 2777.5,0.5C 2777.04,38.8679 2777.54,77.2012 2779,115.5C 2785.02,131.761 2796.52,137.927 2813.5,134C 2823.88,130.952 2830.05,124.119 2832,113.5C 2832.5,75.8348 2832.67,38.1681 2832.5,0.5C 2843.5,0.5 2854.5,0.5 2865.5,0.5C 2865.67,37.8348 2865.5,75.1682 2865,112.5C 2859.34,146.153 2839.34,163.486 2805,164.5C 2780.03,164.195 2761.7,153.195 2750,131.5C 2748.26,126.946 2746.93,122.279 2746,117.5C 2745.5,78.5014 2745.33,39.5014 2745.5,0.5 Z"/></g>
<g><path style="opacity:0.978" fill="#4b5c65" d="M -0.5,113.5 C 25.1667,113.5 50.8333,113.5 76.5,113.5C 76.5,139.5 76.5,165.5 76.5,191.5C 50.8333,191.5 25.1667,191.5 -0.5,191.5C -0.5,165.5 -0.5,139.5 -0.5,113.5 Z"/></g>
<g><path style="opacity:0.978" fill="#4b5c65" d="M 113.5,113.5 C 139.167,113.5 164.833,113.5 190.5,113.5C 190.5,139.5 190.5,165.5 190.5,191.5C 164.833,191.5 139.167,191.5 113.5,191.5C 113.5,165.5 113.5,139.5 113.5,113.5 Z"/></g>
<g><path style="opacity:0.978" fill="#4b5c65" d="M 228.5,113.5 C 254.167,113.5 279.833,113.5 305.5,113.5C 305.5,139.5 305.5,165.5 305.5,191.5C 279.833,191.5 254.167,191.5 228.5,191.5C 228.5,165.5 228.5,139.5 228.5,113.5 Z"/></g>
<g><path style="opacity:0.987" fill="#7fba25" d="M -0.5,228.5 C 25.1667,228.5 50.8333,228.5 76.5,228.5C 76.5,254.167 76.5,279.833 76.5,305.5C 50.8333,305.5 25.1667,305.5 -0.5,305.5C -0.5,279.833 -0.5,254.167 -0.5,228.5 Z"/></g>
<g><path style="opacity:0.987" fill="#4b5c65" d="M 113.5,228.5 C 139.167,228.5 164.833,228.5 190.5,228.5C 190.5,254.167 190.5,279.833 190.5,305.5C 164.833,305.5 139.167,305.5 113.5,305.5C 113.5,279.833 113.5,254.167 113.5,228.5 Z"/></g>
<g><path style="opacity:0.987" fill="#7fba25" d="M 228.5,228.5 C 254.167,228.5 279.833,228.5 305.5,228.5C 305.5,254.167 305.5,279.833 305.5,305.5C 279.833,305.5 254.167,305.5 228.5,305.5C 228.5,279.833 228.5,254.167 228.5,228.5 Z"/></g>
<g><path style="opacity:0.808" fill="#4b5c65" d="M 3891.5,253.5 C 3894.17,253.5 3896.83,253.5 3899.5,253.5C 3899.5,256.5 3899.5,259.5 3899.5,262.5C 3896.83,262.5 3894.17,262.5 3891.5,262.5C 3891.5,259.5 3891.5,256.5 3891.5,253.5 Z"/></g>
<g><path style="opacity:0.742" fill="#4b5c65" d="M 4696.5,253.5 C 4699.5,253.5 4702.5,253.5 4705.5,253.5C 4705.5,256.5 4705.5,259.5 4705.5,262.5C 4702.5,262.5 4699.5,262.5 4696.5,262.5C 4696.5,259.5 4696.5,256.5 4696.5,253.5 Z"/></g>
<g><path style="opacity:0.895" fill="#4b5c65" d="M 3627.5,254.5 C 3630.57,254.183 3633.57,254.516 3636.5,255.5C 3642.8,270.107 3649.64,284.44 3657,298.5C 3663.5,284.167 3670,269.833 3676.5,255.5C 3679.09,254.52 3681.75,254.187 3684.5,254.5C 3684.5,276.5 3684.5,298.5 3684.5,320.5C 3681.83,320.5 3679.17,320.5 3676.5,320.5C 3676.67,305.163 3676.5,289.83 3676,274.5C 3670.54,286.416 3665.37,298.416 3660.5,310.5C 3657.88,310.768 3655.38,310.435 3653,309.5C 3647.33,297.5 3641.67,285.5 3636,273.5C 3635.5,289.163 3635.33,304.83 3635.5,320.5C 3632.83,320.5 3630.17,320.5 3627.5,320.5C 3627.5,298.5 3627.5,276.5 3627.5,254.5 Z"/></g>
<g><path style="opacity:0.931" fill="#4b5c65" d="M 3840.5,254.5 C 3842.83,254.5 3845.17,254.5 3847.5,254.5C 3847.33,262.174 3847.5,269.841 3848,277.5C 3855.71,272.385 3863.55,272.218 3871.5,277C 3873.04,278.579 3874.21,280.413 3875,282.5C 3876.44,295.092 3876.94,307.759 3876.5,320.5C 3874.17,320.5 3871.83,320.5 3869.5,320.5C 3869.88,309.112 3869.38,297.779 3868,286.5C 3864.22,280.61 3859.05,279.11 3852.5,282C 3850.11,283.952 3848.61,286.452 3848,289.5C 3847.5,299.828 3847.33,310.161 3847.5,320.5C 3845.17,320.5 3842.83,320.5 3840.5,320.5C 3840.5,298.5 3840.5,276.5 3840.5,254.5 Z"/></g>
<g><path style="opacity:0.885" fill="#4b5c65" d="M 4066.5,254.5 C 4069.17,254.5 4071.83,254.5 4074.5,254.5C 4074.33,262.174 4074.5,269.841 4075,277.5C 4082.31,272.34 4089.81,272.174 4097.5,277C 4101.76,282.933 4103.76,289.6 4103.5,297C 4103.95,317.756 4094.61,324.589 4075.5,317.5C 4074.61,318.325 4074.28,319.325 4074.5,320.5C 4071.83,320.5 4069.17,320.5 4066.5,320.5C 4066.5,298.5 4066.5,276.5 4066.5,254.5 Z M 4081.5,280.5 C 4088.78,279.387 4093.28,282.387 4095,289.5C 4095.82,295.902 4095.48,302.235 4094,308.5C 4093.05,310.57 4091.55,312.07 4089.5,313C 4082,315.336 4077.17,312.836 4075,305.5C 4074.12,298.751 4074.46,292.084 4076,285.5C 4077.73,283.598 4079.56,281.931 4081.5,280.5 Z"/></g>
<g><path style="opacity:0.896" fill="#4b5c65" d="M 4264.5,254.5 C 4267.45,254.223 4270.28,254.556 4273,255.5C 4279.67,270.167 4286.33,284.833 4293,299.5C 4299.77,284.951 4306.27,270.284 4312.5,255.5C 4315.43,254.516 4318.43,254.183 4321.5,254.5C 4321.5,276.5 4321.5,298.5 4321.5,320.5C 4318.83,320.5 4316.17,320.5 4313.5,320.5C 4313.67,304.83 4313.5,289.163 4313,273.5C 4307.77,285.619 4302.27,297.619 4296.5,309.5C 4293.97,310.777 4291.47,310.777 4289,309.5C 4283.94,297.714 4278.61,286.047 4273,274.5C 4272.5,289.83 4272.33,305.163 4272.5,320.5C 4269.83,320.5 4267.17,320.5 4264.5,320.5C 4264.5,298.5 4264.5,276.5 4264.5,254.5 Z"/></g>
<g><path style="opacity:0.895" fill="#4b5c65" d="M 4431.5,254.5 C 4434.17,254.5 4436.83,254.5 4439.5,254.5C 4439.33,262.174 4439.5,269.841 4440,277.5C 4447.31,272.34 4454.81,272.174 4462.5,277C 4464.62,278.731 4466.12,280.898 4467,283.5C 4467.5,295.829 4467.67,308.162 4467.5,320.5C 4465.17,320.5 4462.83,320.5 4460.5,320.5C 4460.67,309.828 4460.5,299.161 4460,288.5C 4456.31,280.2 4450.48,278.367 4442.5,283C 4441.3,283.903 4440.47,285.069 4440,286.5C 4439.5,297.828 4439.33,309.162 4439.5,320.5C 4436.83,320.5 4434.17,320.5 4431.5,320.5C 4431.5,298.5 4431.5,276.5 4431.5,254.5 Z"/></g>
<g><path style="opacity:0.907" fill="#4b5c65" d="M 4720.5,254.5 C 4722.83,254.5 4725.17,254.5 4727.5,254.5C 4727.33,268.504 4727.5,282.504 4728,296.5C 4734.28,289.427 4740.45,282.26 4746.5,275C 4749.83,274.333 4753.17,274.333 4756.5,275C 4751.5,280.667 4746.5,286.333 4741.5,292C 4747.62,301.081 4753.62,310.248 4759.5,319.5C 4756.17,320.833 4752.83,320.833 4749.5,319.5C 4745.5,312.16 4741,305.16 4736,298.5C 4732.96,301.203 4730.3,304.203 4728,307.5C 4727.5,311.821 4727.33,316.154 4727.5,320.5C 4725.17,320.5 4722.83,320.5 4720.5,320.5C 4720.5,298.5 4720.5,276.5 4720.5,254.5 Z"/></g>
<g><path style="opacity:0.971" fill="#4b5c65" d="M 3249.5,256.5 C 3289.04,252.571 3313.37,269.738 3322.5,308C 3311.5,308.667 3300.5,308.667 3289.5,308C 3284.14,290.811 3272.47,283.477 3254.5,286C 3240.45,290.555 3233.61,300.389 3234,315.5C 3233.33,331.5 3233.33,347.5 3234,363.5C 3236.81,387.662 3249.98,396.495 3273.5,390C 3281.59,385.901 3286.76,379.401 3289,370.5C 3289.67,365.844 3290.17,361.177 3290.5,356.5C 3280.5,356.5 3270.5,356.5 3260.5,356.5C 3260.5,347.5 3260.5,338.5 3260.5,329.5C 3281.17,329.5 3301.83,329.5 3322.5,329.5C 3322.67,341.171 3322.5,352.838 3322,364.5C 3319.98,393.846 3304.82,412.346 3276.5,420C 3246.38,425.866 3223.21,416.033 3207,390.5C 3204.19,383.441 3202.52,376.108 3202,368.5C 3199.68,344.408 3200.35,320.408 3204,296.5C 3208.81,279.683 3219.31,267.849 3235.5,261C 3240.18,259.17 3244.85,257.67 3249.5,256.5 Z"/></g>
<g><path style="opacity:0.964" fill="#4b5c65" d="M 2132.5,257.5 C 2168.5,257.5 2204.5,257.5 2240.5,257.5C 2240.5,267.167 2240.5,276.833 2240.5,286.5C 2215.5,286.5 2190.5,286.5 2165.5,286.5C 2165.5,299.5 2165.5,312.5 2165.5,325.5C 2186.83,325.5 2208.17,325.5 2229.5,325.5C 2229.5,335.167 2229.5,344.833 2229.5,354.5C 2208.17,354.5 2186.83,354.5 2165.5,354.5C 2165.5,376.5 2165.5,398.5 2165.5,420.5C 2154.5,420.5 2143.5,420.5 2132.5,420.5C 2132.5,366.167 2132.5,311.833 2132.5,257.5 Z"/></g>
<g><path style="opacity:0.965" fill="#4b5c65" d="M 2266.5,257.5 C 2290.84,257.333 2315.17,257.5 2339.5,258C 2367.43,262.764 2382.1,279.264 2383.5,307.5C 2382.96,328.085 2373.29,342.585 2354.5,351C 2366.5,374 2378.5,397 2390.5,420C 2377.83,420.667 2365.17,420.667 2352.5,420C 2342.04,398.91 2331.71,377.743 2321.5,356.5C 2314.2,355.503 2306.86,355.169 2299.5,355.5C 2299.5,377.167 2299.5,398.833 2299.5,420.5C 2288.5,420.5 2277.5,420.5 2266.5,420.5C 2266.5,366.167 2266.5,311.833 2266.5,257.5 Z M 2299.5,286.5 C 2310.51,286.333 2321.51,286.5 2332.5,287C 2349.24,291.641 2354.4,302.141 2348,318.5C 2344.35,324.079 2339.18,327.245 2332.5,328C 2321.51,328.5 2310.51,328.667 2299.5,328.5C 2299.5,314.5 2299.5,300.5 2299.5,286.5 Z"/></g>
<g><path style="opacity:0.985" fill="#4b5c65" d="M 2415.5,257.5 C 2426.17,257.5 2436.83,257.5 2447.5,257.5C 2447.5,311.833 2447.5,366.167 2447.5,420.5C 2436.83,420.5 2426.17,420.5 2415.5,420.5C 2415.5,366.167 2415.5,311.833 2415.5,257.5 Z"/></g>
<g><path style="opacity:0.974" fill="#4b5c65" d="M 2484.5,257.5 C 2520.17,257.5 2555.83,257.5 2591.5,257.5C 2591.5,267.167 2591.5,276.833 2591.5,286.5C 2566.5,286.5 2541.5,286.5 2516.5,286.5C 2516.5,298.833 2516.5,311.167 2516.5,323.5C 2537.83,323.5 2559.17,323.5 2580.5,323.5C 2580.5,333.167 2580.5,342.833 2580.5,352.5C 2559.17,352.5 2537.83,352.5 2516.5,352.5C 2516.5,365.167 2516.5,377.833 2516.5,390.5C 2541.5,390.5 2566.5,390.5 2591.5,390.5C 2591.5,400.5 2591.5,410.5 2591.5,420.5C 2555.83,420.5 2520.17,420.5 2484.5,420.5C 2484.5,366.167 2484.5,311.833 2484.5,257.5 Z"/></g>
<g><path style="opacity:0.967" fill="#4b5c65" d="M 2621.5,257.5 C 2644.17,257.333 2666.84,257.5 2689.5,258C 2717.76,261.593 2734.26,277.426 2739,305.5C 2739.59,313.161 2740.09,320.827 2740.5,328.5C 2740.94,344.815 2740.11,361.149 2738,377.5C 2732.61,400.892 2718.11,414.725 2694.5,419C 2670.2,420.406 2645.86,420.906 2621.5,420.5C 2621.5,366.167 2621.5,311.833 2621.5,257.5 Z M 2654.5,286.5 C 2663.84,286.334 2673.17,286.5 2682.5,287C 2695.87,288.708 2703.71,296.208 2706,309.5C 2708.25,330.553 2707.92,351.553 2705,372.5C 2701.77,381.401 2695.6,387.234 2686.5,390C 2675.84,390.5 2665.17,390.667 2654.5,390.5C 2654.5,355.833 2654.5,321.167 2654.5,286.5 Z"/></g>
<g><path style="opacity:0.977" fill="#4b5c65" d="M 2771.5,257.5 C 2796.17,257.333 2820.84,257.5 2845.5,258C 2872.38,261.256 2886.38,276.423 2887.5,303.5C 2886.48,317.702 2880.15,328.869 2868.5,337C 2882.57,344.953 2889.57,357.12 2889.5,373.5C 2887.9,401.932 2872.9,417.432 2844.5,420C 2820.17,420.5 2795.84,420.667 2771.5,420.5C 2771.5,366.167 2771.5,311.833 2771.5,257.5 Z M 2803.5,286.5 C 2816.56,286.078 2829.56,286.578 2842.5,288C 2853.97,293.739 2857.14,302.573 2852,314.5C 2849.8,317.04 2847.3,319.207 2844.5,321C 2830.91,322.446 2817.24,322.946 2803.5,322.5C 2803.5,310.5 2803.5,298.5 2803.5,286.5 Z M 2803.5,352.5 C 2817.57,352.053 2831.57,352.553 2845.5,354C 2854.81,359.131 2858.31,366.964 2856,377.5C 2853.83,383.667 2849.67,387.833 2843.5,390C 2830.17,390.5 2816.84,390.667 2803.5,390.5C 2803.5,377.833 2803.5,365.167 2803.5,352.5 Z"/></g>
<g><path style="opacity:0.966" fill="#4b5c65" d="M 2920.5,257.5 C 2956.17,257.5 2991.83,257.5 3027.5,257.5C 3027.5,267.167 3027.5,276.833 3027.5,286.5C 3002.83,286.5 2978.17,286.5 2953.5,286.5C 2953.5,298.833 2953.5,311.167 2953.5,323.5C 2974.5,323.5 2995.5,323.5 3016.5,323.5C 3016.5,333.167 3016.5,342.833 3016.5,352.5C 2995.5,352.5 2974.5,352.5 2953.5,352.5C 2953.5,365.167 2953.5,377.833 2953.5,390.5C 2978.17,390.5 3002.83,390.5 3027.5,390.5C 3027.5,400.5 3027.5,410.5 3027.5,420.5C 2991.83,420.5 2956.17,420.5 2920.5,420.5C 2920.5,366.167 2920.5,311.833 2920.5,257.5 Z"/></g>
<g><path style="opacity:0.966" fill="#4b5c65" d="M 3057.5,257.5 C 3083.87,257.055 3110.2,257.555 3136.5,259C 3161.02,265.866 3173.69,282.033 3174.5,307.5C 3173.96,328.085 3164.29,342.585 3145.5,351C 3157.7,373.709 3169.7,396.542 3181.5,419.5C 3168.83,420.833 3156.17,420.833 3143.5,419.5C 3132.89,398.623 3122.56,377.623 3112.5,356.5C 3105.2,355.503 3097.86,355.169 3090.5,355.5C 3090.5,377.167 3090.5,398.833 3090.5,420.5C 3079.5,420.5 3068.5,420.5 3057.5,420.5C 3057.5,366.167 3057.5,311.833 3057.5,257.5 Z M 3090.5,286.5 C 3101.51,286.333 3112.51,286.5 3123.5,287C 3135.17,288.839 3141.5,295.673 3142.5,307.5C 3141.52,319.308 3135.18,326.142 3123.5,328C 3112.51,328.5 3101.51,328.667 3090.5,328.5C 3090.5,314.5 3090.5,300.5 3090.5,286.5 Z"/></g>
<g><path style="opacity:0.924" fill="#4b5c65" d="M 4532.5,260.5 C 4534.83,260.5 4537.17,260.5 4539.5,260.5C 4539.5,265.167 4539.5,269.833 4539.5,274.5C 4542.83,274.5 4546.17,274.5 4549.5,274.5C 4549.5,276.5 4549.5,278.5 4549.5,280.5C 4546.17,280.5 4542.83,280.5 4539.5,280.5C 4539.33,289.839 4539.5,299.173 4540,308.5C 4540.27,310.329 4541.11,311.829 4542.5,313C 4544.81,313.497 4547.14,313.663 4549.5,313.5C 4549.5,315.833 4549.5,318.167 4549.5,320.5C 4543.39,321.59 4538.22,319.923 4534,315.5C 4532.56,303.91 4532.06,292.243 4532.5,280.5C 4530.5,280.5 4528.5,280.5 4526.5,280.5C 4526.5,278.5 4526.5,276.5 4526.5,274.5C 4528.5,274.5 4530.5,274.5 4532.5,274.5C 4532.5,269.833 4532.5,265.167 4532.5,260.5 Z"/></g>
<g><path style="opacity:0.88" fill="#4b5c65" d="M 3710.5,273.5 C 3715.58,273.25 3720.58,273.75 3725.5,275C 3728.54,276.031 3731.04,277.865 3733,280.5C 3734.44,293.76 3734.94,307.093 3734.5,320.5C 3732.17,320.5 3729.83,320.5 3727.5,320.5C 3727.72,319.325 3727.39,318.325 3726.5,317.5C 3725.09,318.806 3723.42,319.64 3721.5,320C 3716.5,320.667 3711.5,320.667 3706.5,320C 3700.54,317.764 3697.54,313.431 3697.5,307C 3697.93,301.471 3700.59,297.471 3705.5,295C 3712.75,293.609 3720.08,293.109 3727.5,293.5C 3727.65,282.495 3722.32,278.328 3711.5,281C 3708.78,281.878 3706.45,283.378 3704.5,285.5C 3699.34,283.315 3698.68,280.482 3702.5,277C 3705.16,275.522 3707.82,274.355 3710.5,273.5 Z M 3711.5,299.5 C 3716.83,299.5 3722.17,299.5 3727.5,299.5C 3727.12,313.45 3720.46,317.617 3707.5,312C 3704.15,306.235 3705.48,302.069 3711.5,299.5 Z"/></g>
<g><path style="opacity:0.865" fill="#4b5c65" d="M 3759.5,273.5 C 3767.62,272.529 3774.95,274.363 3781.5,279C 3779.95,280.892 3778.11,282.392 3776,283.5C 3770.83,280.695 3765.33,279.861 3759.5,281C 3754.38,284 3753.71,287.667 3757.5,292C 3763.46,293.131 3769.46,294.131 3775.5,295C 3783.11,298.725 3785.27,304.558 3782,312.5C 3780.01,316.49 3776.84,318.99 3772.5,320C 3764.14,321.375 3756.14,320.375 3748.5,317C 3747.31,315.981 3746.31,314.814 3745.5,313.5C 3746.81,311.684 3748.31,310.017 3750,308.5C 3756.33,313.875 3763.5,315.375 3771.5,313C 3775.84,309.961 3776.51,306.295 3773.5,302C 3767.55,300.783 3761.55,299.783 3755.5,299C 3747.62,295.019 3745.46,288.853 3749,280.5C 3751.71,276.791 3755.21,274.457 3759.5,273.5 Z"/></g>
<g><path style="opacity:0.857" fill="#4b5c65" d="M 3808.5,273.5 C 3816.52,272.281 3823.18,274.615 3828.5,280.5C 3827.17,282.5 3825.5,284.167 3823.5,285.5C 3813.77,277.624 3806.27,279.29 3801,290.5C 3799.94,296.724 3800.61,302.724 3803,308.5C 3809.8,315.136 3816.63,315.136 3823.5,308.5C 3826.1,309.899 3827.6,311.899 3828,314.5C 3826.06,317.106 3823.56,318.939 3820.5,320C 3802.72,323.051 3793.38,315.551 3792.5,297.5C 3792.06,285.331 3797.39,277.331 3808.5,273.5 Z"/></g>
<g><path style="opacity:0.856" fill="#4b5c65" d="M 3930.5,273.5 C 3939.08,272.186 3945.58,275.186 3950,282.5C 3951.42,295.106 3951.92,307.772 3951.5,320.5C 3948.83,320.5 3946.17,320.5 3943.5,320.5C 3943.67,309.495 3943.5,298.495 3943,287.5C 3939.66,280.752 3934.49,278.919 3927.5,282C 3925.19,283.637 3923.69,285.804 3923,288.5C 3922.5,299.161 3922.33,309.828 3922.5,320.5C 3919.83,320.5 3917.17,320.5 3914.5,320.5C 3914.5,305.167 3914.5,289.833 3914.5,274.5C 3917.17,274.5 3919.83,274.5 3922.5,274.5C 3922.35,275.552 3922.52,276.552 3923,277.5C 3925.51,275.996 3928.01,274.662 3930.5,273.5 Z"/></g>
<g><path style="opacity:0.868" fill="#4b5c65" d="M 3978.5,273.5 C 3995.97,273.308 4003.63,281.975 4001.5,299.5C 3991.5,299.5 3981.5,299.5 3971.5,299.5C 3973.45,313.611 3980.78,317.445 3993.5,311C 3994.33,310.167 3995.17,309.333 3996,308.5C 3997.56,310.359 3999.39,311.859 4001.5,313C 3997.26,318.691 3991.6,321.191 3984.5,320.5C 3977.07,321.196 3971.24,318.529 3967,312.5C 3962.19,301.68 3962.52,291.014 3968,280.5C 3971,277.262 3974.5,274.929 3978.5,273.5 Z M 3979.5,280.5 C 3989.12,279.48 3994.12,283.813 3994.5,293.5C 3986.83,293.5 3979.17,293.5 3971.5,293.5C 3971.41,287.329 3974.08,282.995 3979.5,280.5 Z"/></g>
<g><path style="opacity:0.858" fill="#4b5c65" d="M 4030.5,273.5 C 4039.08,272.186 4045.58,275.186 4050,282.5C 4051.44,295.092 4051.94,307.759 4051.5,320.5C 4048.83,320.5 4046.17,320.5 4043.5,320.5C 4043.67,309.495 4043.5,298.495 4043,287.5C 4039.66,280.752 4034.49,278.919 4027.5,282C 4025.19,283.637 4023.69,285.804 4023,288.5C 4022.5,299.161 4022.33,309.828 4022.5,320.5C 4019.83,320.5 4017.17,320.5 4014.5,320.5C 4014.5,305.167 4014.5,289.833 4014.5,274.5C 4017.17,274.5 4019.83,274.5 4022.5,274.5C 4022.35,275.552 4022.52,276.552 4023,277.5C 4025.51,275.996 4028.01,274.662 4030.5,273.5 Z"/></g>
<g><path style="opacity:0.873" fill="#4b5c65" d="M 4125.5,273.5 C 4133.64,272.325 4140.81,274.325 4147,279.5C 4147.67,280.833 4148.33,282.167 4149,283.5C 4149.5,295.829 4149.67,308.162 4149.5,320.5C 4146.83,320.5 4144.17,320.5 4141.5,320.5C 4141.65,319.448 4141.48,318.448 4141,317.5C 4139.83,318.893 4138.33,319.727 4136.5,320C 4131.5,320.667 4126.5,320.667 4121.5,320C 4115.54,317.767 4112.54,313.433 4112.5,307C 4112.82,301.361 4115.49,297.361 4120.5,295C 4127.41,293.616 4134.41,293.116 4141.5,293.5C 4142.2,282.071 4136.87,277.904 4125.5,281C 4123.36,282.308 4121.36,283.808 4119.5,285.5C 4114.34,283.315 4113.68,280.482 4117.5,277C 4120.16,275.522 4122.82,274.355 4125.5,273.5 Z M 4125.5,299.5 C 4130.83,299.5 4136.17,299.5 4141.5,299.5C 4142.38,312.766 4136.38,317.266 4123.5,313C 4119.09,307.714 4119.75,303.214 4125.5,299.5 Z"/></g>
<g><path style="opacity:0.865" fill="#4b5c65" d="M 4350.5,273.5 C 4367.8,273.349 4375.46,282.016 4373.5,299.5C 4363.5,299.5 4353.5,299.5 4343.5,299.5C 4343.96,311.462 4349.96,315.962 4361.5,313C 4363.75,311.623 4365.92,310.123 4368,308.5C 4369.69,310.017 4371.19,311.684 4372.5,313.5C 4368.26,318.701 4362.76,321.034 4356,320.5C 4344.62,321.128 4337.96,315.795 4336,304.5C 4333.66,293.327 4336.5,283.827 4344.5,276C 4346.61,275.155 4348.61,274.322 4350.5,273.5 Z M 4350.5,280.5 C 4360.18,279.511 4365.18,283.845 4365.5,293.5C 4358.17,293.5 4350.83,293.5 4343.5,293.5C 4343.02,287.559 4345.36,283.226 4350.5,280.5 Z"/></g>
<g><path style="opacity:0.871" fill="#4b5c65" d="M 4399.5,273.5 C 4405.56,272.838 4411.23,274.004 4416.5,277C 4420.66,280.546 4420.16,283.379 4415,285.5C 4407.6,278.57 4400.6,278.903 4394,286.5C 4389.81,295.803 4390.98,304.303 4397.5,312C 4404.22,314.851 4410.05,313.685 4415,308.5C 4417.76,310.204 4419.09,312.538 4419,315.5C 4410.2,321.569 4401.03,322.069 4391.5,317C 4388.07,313.896 4385.9,310.063 4385,305.5C 4384.12,298.751 4384.46,292.084 4386,285.5C 4388.83,279.493 4393.33,275.493 4399.5,273.5 Z"/></g>
<g><path style="opacity:0.863" fill="#4b5c65" d="M 4491.5,273.5 C 4495.51,273.334 4499.51,273.501 4503.5,274C 4511,274.833 4515.17,279 4516,286.5C 4516.5,297.828 4516.67,309.162 4516.5,320.5C 4513.83,320.5 4511.17,320.5 4508.5,320.5C 4508.65,319.448 4508.48,318.448 4508,317.5C 4506.58,318.46 4505.08,319.293 4503.5,320C 4497.41,320.861 4491.41,320.527 4485.5,319C 4479.03,313.135 4477.86,306.302 4482,298.5C 4483.21,296.951 4484.71,295.785 4486.5,295C 4493.76,293.652 4501.09,293.152 4508.5,293.5C 4508.79,282.456 4503.46,278.289 4492.5,281C 4489.9,281.883 4487.73,283.383 4486,285.5C 4480.19,282.709 4480.02,279.542 4485.5,276C 4487.61,275.155 4489.61,274.322 4491.5,273.5 Z M 4492.5,299.5 C 4497.83,299.5 4503.17,299.5 4508.5,299.5C 4510.43,308.997 4506.59,313.997 4497,314.5C 4488.59,314.304 4485.59,310.304 4488,302.5C 4489.65,301.601 4491.15,300.601 4492.5,299.5 Z"/></g>
<g><path style="opacity:0.853" fill="#4b5c65" d="M 4577.5,273.5 C 4583.46,272.599 4588.46,274.266 4592.5,278.5C 4591.13,280.705 4589.3,282.372 4587,283.5C 4581.04,279.049 4575.71,279.715 4571,285.5C 4569.54,297.065 4569.04,308.732 4569.5,320.5C 4566.83,320.5 4564.17,320.5 4561.5,320.5C 4561.5,305.167 4561.5,289.833 4561.5,274.5C 4564.17,274.5 4566.83,274.5 4569.5,274.5C 4569.35,275.552 4569.52,276.552 4570,277.5C 4572.51,275.996 4575.01,274.662 4577.5,273.5 Z"/></g>
<g><path style="opacity:0.874" fill="#4b5c65" d="M 4609.5,273.5 C 4621.67,272.528 4629.17,277.861 4632,289.5C 4632.83,296.234 4632.5,302.901 4631,309.5C 4625.03,320.159 4616.2,323.325 4604.5,319C 4596.95,313.732 4593.62,306.399 4594.5,297C 4593.65,285.156 4598.65,277.322 4609.5,273.5 Z M 4610.5,280.5 C 4616.99,279.99 4621.49,282.657 4624,288.5C 4624.67,294.5 4624.67,300.5 4624,306.5C 4620.32,313.414 4614.82,315.248 4607.5,312C 4605.11,310.048 4603.61,307.548 4603,304.5C 4601.9,297.615 4602.57,290.949 4605,284.5C 4606.81,283.023 4608.65,281.69 4610.5,280.5 Z"/></g>
<g><path style="opacity:0.864" fill="#4b5c65" d="M 4661.5,273.5 C 4670.59,272.043 4677.09,275.376 4681,283.5C 4682.42,295.772 4682.92,308.105 4682.5,320.5C 4679.83,320.5 4677.17,320.5 4674.5,320.5C 4674.67,309.495 4674.5,298.495 4674,287.5C 4669.78,280.128 4663.95,278.628 4656.5,283C 4655.54,284.419 4654.71,285.919 4654,287.5C 4653.5,298.495 4653.33,309.495 4653.5,320.5C 4650.83,320.5 4648.17,320.5 4645.5,320.5C 4645.5,305.167 4645.5,289.833 4645.5,274.5C 4648.17,274.5 4650.83,274.5 4653.5,274.5C 4653.35,275.552 4653.52,276.552 4654,277.5C 4656.26,275.501 4658.76,274.168 4661.5,273.5 Z"/></g>
<g><path style="opacity:0.835" fill="#4b5c65" d="M 3891.5,274.5 C 3894.17,274.5 3896.83,274.5 3899.5,274.5C 3899.5,289.833 3899.5,305.167 3899.5,320.5C 3896.83,320.5 3894.17,320.5 3891.5,320.5C 3891.5,305.167 3891.5,289.833 3891.5,274.5 Z"/></g>
<g><path style="opacity:0.94" fill="#4b5c65" d="M 4164.5,274.5 C 4166.83,274.5 4169.17,274.5 4171.5,274.5C 4171.33,284.839 4171.5,295.172 4172,305.5C 4172.97,311.139 4176.3,313.805 4182,313.5C 4186.73,313.802 4190.06,311.802 4192,307.5C 4193.41,296.564 4193.91,285.564 4193.5,274.5C 4195.83,274.5 4198.17,274.5 4200.5,274.5C 4200.5,289.833 4200.5,305.167 4200.5,320.5C 4198.17,320.5 4195.83,320.5 4193.5,320.5C 4193.66,319.127 4193.49,317.793 4193,316.5C 4189.42,319.528 4185.25,320.861 4180.5,320.5C 4172.97,320.82 4167.81,317.487 4165,310.5C 4164.5,298.505 4164.33,286.505 4164.5,274.5 Z"/></g>
<g><path style="opacity:0.989" fill="#4b5c65" d="M 4697.5,274.5 C 4699.83,274.5 4702.17,274.5 4704.5,274.5C 4704.5,289.833 4704.5,305.167 4704.5,320.5C 4702.17,320.5 4699.83,320.5 4697.5,320.5C 4697.5,305.167 4697.5,289.833 4697.5,274.5 Z"/></g>
<g><path style="opacity:0.823" fill="#4b5c65" d="M 4215.5,311.5 C 4218.83,311.5 4222.17,311.5 4225.5,311.5C 4225.67,316.511 4225.5,321.511 4225,326.5C 4222.02,328.644 4219.19,330.978 4216.5,333.5C 4215.5,326.197 4215.17,318.863 4215.5,311.5 Z"/></g>
<g><path style="opacity:0.915" fill="#4b5c65" d="M 4777.5,311.5 C 4777.5,316.833 4777.5,322.167 4777.5,327.5C 4775.16,329.666 4772.66,331.666 4770,333.5C 4769.5,326.174 4769.33,318.841 4769.5,311.5C 4772.17,311.5 4774.83,311.5 4777.5,311.5 Z"/></g>
<g><path style="opacity:0.974" fill="#4b5c65" d="M -0.5,342.5 C 25.1667,342.5 50.8333,342.5 76.5,342.5C 76.5,368.5 76.5,394.5 76.5,420.5C 50.8333,420.5 25.1667,420.5 -0.5,420.5C -0.5,394.5 -0.5,368.5 -0.5,342.5 Z"/></g>
<g><path style="opacity:0.974" fill="#7fba25" d="M 113.5,342.5 C 139.167,342.5 164.833,342.5 190.5,342.5C 190.5,368.5 190.5,394.5 190.5,420.5C 164.833,420.5 139.167,420.5 113.5,420.5C 113.5,394.5 113.5,368.5 113.5,342.5 Z"/></g>
<g><path style="opacity:0.974" fill="#4b5c65" d="M 228.5,342.5 C 254.167,342.5 279.833,342.5 305.5,342.5C 305.5,368.5 305.5,394.5 305.5,420.5C 279.833,420.5 254.167,420.5 228.5,420.5C 228.5,394.5 228.5,368.5 228.5,342.5 Z"/></g>
<g><path style="opacity:0.808" fill="#4b5c65" d="M 3866.5,353.5 C 3869.17,353.5 3871.83,353.5 3874.5,353.5C 3874.5,356.5 3874.5,359.5 3874.5,362.5C 3871.83,362.5 3869.17,362.5 3866.5,362.5C 3866.5,359.5 3866.5,356.5 3866.5,353.5 Z"/></g>
<g><path style="opacity:0.835" fill="#4b5c65" d="M 4363.5,353.5 C 4366.17,353.5 4368.83,353.5 4371.5,353.5C 4371.5,356.5 4371.5,359.5 4371.5,362.5C 4368.83,362.5 4366.17,362.5 4363.5,362.5C 4363.5,359.5 4363.5,356.5 4363.5,353.5 Z"/></g>
<g><path style="opacity:0.895" fill="#4b5c65" d="M 3627.5,354.5 C 3630.57,354.183 3633.57,354.516 3636.5,355.5C 3642.8,370.107 3649.64,384.44 3657,398.5C 3663.5,384.167 3670,369.833 3676.5,355.5C 3679.09,354.52 3681.75,354.187 3684.5,354.5C 3684.5,376.5 3684.5,398.5 3684.5,420.5C 3681.83,420.5 3679.17,420.5 3676.5,420.5C 3676.67,405.163 3676.5,389.83 3676,374.5C 3670.54,386.416 3665.37,398.416 3660.5,410.5C 3657.88,410.768 3655.38,410.435 3653,409.5C 3647.33,397.5 3641.67,385.5 3636,373.5C 3635.5,389.163 3635.33,404.83 3635.5,420.5C 3632.83,420.5 3630.17,420.5 3627.5,420.5C 3627.5,398.5 3627.5,376.5 3627.5,354.5 Z"/></g>
<g><path style="opacity:0.841" fill="#4b5c65" d="M 3937.5,354.5 C 3940.17,354.5 3942.83,354.5 3945.5,354.5C 3945.33,373.17 3945.5,391.836 3946,410.5C 3946.5,411.667 3947.33,412.5 3948.5,413C 3950.81,413.497 3953.14,413.663 3955.5,413.5C 3955.5,415.833 3955.5,418.167 3955.5,420.5C 3951.4,420.766 3947.4,420.266 3943.5,419C 3941.33,418.167 3939.83,416.667 3939,414.5C 3937.55,394.554 3937.05,374.554 3937.5,354.5 Z"/></g>
<g><path style="opacity:0.895" fill="#4b5c65" d="M 4088.5,354.5 C 4091.17,354.5 4093.83,354.5 4096.5,354.5C 4096.33,362.174 4096.5,369.841 4097,377.5C 4104.31,372.34 4111.81,372.174 4119.5,377C 4121.62,378.731 4123.12,380.898 4124,383.5C 4124.5,395.829 4124.67,408.162 4124.5,420.5C 4122.17,420.5 4119.83,420.5 4117.5,420.5C 4117.67,409.828 4117.5,399.161 4117,388.5C 4113.31,380.2 4107.48,378.367 4099.5,383C 4098.3,383.903 4097.47,385.069 4097,386.5C 4096.5,397.828 4096.33,409.162 4096.5,420.5C 4093.83,420.5 4091.17,420.5 4088.5,420.5C 4088.5,398.5 4088.5,376.5 4088.5,354.5 Z"/></g>
<g><path style="opacity:0.841" fill="#4b5c65" d="M 4239.5,354.5 C 4242.17,354.5 4244.83,354.5 4247.5,354.5C 4247.33,373.17 4247.5,391.836 4248,410.5C 4248.5,411.667 4249.33,412.5 4250.5,413C 4252.81,413.497 4255.14,413.663 4257.5,413.5C 4257.5,415.833 4257.5,418.167 4257.5,420.5C 4253.4,420.766 4249.4,420.266 4245.5,419C 4243.33,418.167 4241.83,416.667 4241,414.5C 4239.55,394.554 4239.05,374.554 4239.5,354.5 Z"/></g>
<g><path style="opacity:0.854" fill="#4b5c65" d="M 3750.5,360.5 C 3753.17,360.5 3755.83,360.5 3758.5,360.5C 3758.5,365.167 3758.5,369.833 3758.5,374.5C 3761.83,374.5 3765.17,374.5 3768.5,374.5C 3768.5,376.5 3768.5,378.5 3768.5,380.5C 3765.17,380.5 3761.83,380.5 3758.5,380.5C 3758.33,390.506 3758.5,400.506 3759,410.5C 3761.55,413.186 3764.71,414.186 3768.5,413.5C 3768.5,415.833 3768.5,418.167 3768.5,420.5C 3761.7,421.737 3756.2,419.737 3752,414.5C 3750.59,403.23 3750.09,391.896 3750.5,380.5C 3748.83,380.5 3747.17,380.5 3745.5,380.5C 3745.5,378.5 3745.5,376.5 3745.5,374.5C 3747.17,374.5 3748.83,374.5 3750.5,374.5C 3750.5,369.833 3750.5,365.167 3750.5,360.5 Z"/></g>
<g><path style="opacity:0.924" fill="#4b5c65" d="M 3966.5,360.5 C 3968.83,360.5 3971.17,360.5 3973.5,360.5C 3973.5,365.167 3973.5,369.833 3973.5,374.5C 3976.83,374.5 3980.17,374.5 3983.5,374.5C 3983.5,376.5 3983.5,378.5 3983.5,380.5C 3980.17,380.5 3976.83,380.5 3973.5,380.5C 3973.33,389.839 3973.5,399.173 3974,408.5C 3974.27,410.329 3975.11,411.829 3976.5,413C 3978.81,413.497 3981.14,413.663 3983.5,413.5C 3983.5,415.833 3983.5,418.167 3983.5,420.5C 3977.39,421.59 3972.22,419.923 3968,415.5C 3966.56,403.91 3966.06,392.243 3966.5,380.5C 3964.5,380.5 3962.5,380.5 3960.5,380.5C 3960.5,378.5 3960.5,376.5 3960.5,374.5C 3962.5,374.5 3964.5,374.5 3966.5,374.5C 3966.5,369.833 3966.5,365.167 3966.5,360.5 Z"/></g>
<g><path style="opacity:0.88" fill="#4b5c65" d="M 3710.5,373.5 C 3715.58,373.25 3720.58,373.75 3725.5,375C 3728.54,376.031 3731.04,377.865 3733,380.5C 3734.44,393.76 3734.94,407.093 3734.5,420.5C 3732.17,420.5 3729.83,420.5 3727.5,420.5C 3727.72,419.325 3727.39,418.325 3726.5,417.5C 3725.09,418.806 3723.42,419.64 3721.5,420C 3716.5,420.667 3711.5,420.667 3706.5,420C 3700.54,417.764 3697.54,413.431 3697.5,407C 3697.93,401.471 3700.59,397.471 3705.5,395C 3712.75,393.609 3720.08,393.109 3727.5,393.5C 3727.65,382.495 3722.32,378.328 3711.5,381C 3708.78,381.878 3706.45,383.378 3704.5,385.5C 3699.34,383.315 3698.68,380.482 3702.5,377C 3705.16,375.522 3707.82,374.355 3710.5,373.5 Z M 3711.5,399.5 C 3716.83,399.5 3722.17,399.5 3727.5,399.5C 3727.12,413.45 3720.46,417.617 3707.5,412C 3704.15,406.235 3705.48,402.069 3711.5,399.5 Z"/></g>
<g><path style="opacity:0.868" fill="#4b5c65" d="M 3791.5,373.5 C 3808.71,373.386 3816.71,382.052 3815.5,399.5C 3805.17,399.5 3794.83,399.5 3784.5,399.5C 3785.6,411.382 3791.93,415.882 3803.5,413C 3805.61,411.859 3807.44,410.359 3809,408.5C 3811.16,409.826 3812.99,411.493 3814.5,413.5C 3810.11,418.746 3804.44,421.079 3797.5,420.5C 3790.69,421.177 3785.19,418.843 3781,413.5C 3775.06,401.962 3775.39,390.628 3782,379.5C 3784.84,376.837 3788.01,374.837 3791.5,373.5 Z M 3792.5,380.5 C 3802.17,379.508 3807.17,383.841 3807.5,393.5C 3799.83,393.5 3792.17,393.5 3784.5,393.5C 3784.79,387.577 3787.45,383.243 3792.5,380.5 Z"/></g>
<g><path style="opacity:0.919" fill="#4b5c65" d="M 3843.5,373.5 C 3849.58,372.592 3854.91,374.092 3859.5,378C 3858.22,380.423 3856.38,382.256 3854,383.5C 3845.54,378.32 3839.54,380.32 3836,389.5C 3835.5,399.828 3835.33,410.161 3835.5,420.5C 3833.17,420.5 3830.83,420.5 3828.5,420.5C 3828.5,405.167 3828.5,389.833 3828.5,374.5C 3830.83,374.5 3833.17,374.5 3835.5,374.5C 3835.34,375.873 3835.51,377.207 3836,378.5C 3838.17,376.177 3840.67,374.51 3843.5,373.5 Z"/></g>
<g><path style="opacity:0.889" fill="#4b5c65" d="M 3898.5,373.5 C 3906.36,372.569 3913.53,374.236 3920,378.5C 3920.67,379.833 3921.33,381.167 3922,382.5C 3922.5,395.162 3922.67,407.829 3922.5,420.5C 3920.17,420.5 3917.83,420.5 3915.5,420.5C 3915.65,419.448 3915.48,418.448 3915,417.5C 3913.58,418.46 3912.08,419.293 3910.5,420C 3904.41,420.861 3898.41,420.527 3892.5,419C 3888.13,416.257 3886.13,412.257 3886.5,407C 3886,401.343 3888.33,397.343 3893.5,395C 3900.75,393.609 3908.08,393.109 3915.5,393.5C 3915.68,382.527 3910.35,378.36 3899.5,381C 3896.83,382.001 3894.49,383.501 3892.5,385.5C 3890.68,384.185 3889.02,382.685 3887.5,381C 3890.3,377.001 3893.97,374.501 3898.5,373.5 Z M 3899.5,399.5 C 3904.83,399.5 3910.17,399.5 3915.5,399.5C 3916.07,412.405 3910.07,416.905 3897.5,413C 3893.37,410.369 3892.54,406.869 3895,402.5C 3896.41,401.219 3897.91,400.219 3899.5,399.5 Z"/></g>
<g><path style="opacity:0.866" fill="#4b5c65" d="M 4007.5,373.5 C 4024.33,373.722 4031.99,382.389 4030.5,399.5C 4020.5,399.5 4010.5,399.5 4000.5,399.5C 4000.96,411.462 4006.96,415.962 4018.5,413C 4020.75,411.623 4022.92,410.123 4025,408.5C 4026.69,410.017 4028.19,411.684 4029.5,413.5C 4025.26,418.701 4019.76,421.034 4013,420.5C 4001.62,421.128 3994.96,415.795 3993,404.5C 3990.66,393.327 3993.5,383.827 4001.5,376C 4003.61,375.155 4005.61,374.322 4007.5,373.5 Z M 4007.5,380.5 C 4017.18,379.511 4022.18,383.845 4022.5,393.5C 4015.17,393.5 4007.83,393.5 4000.5,393.5C 4000.02,387.559 4002.36,383.226 4007.5,380.5 Z"/></g>
<g><path style="opacity:0.872" fill="#4b5c65" d="M 4056.5,373.5 C 4062.56,372.838 4068.23,374.004 4073.5,377C 4077.74,380.799 4077.07,383.633 4071.5,385.5C 4064.28,378.622 4057.45,378.955 4051,386.5C 4046.81,395.803 4047.98,404.303 4054.5,412C 4061.22,414.851 4067.05,413.685 4072,408.5C 4074.76,410.204 4076.09,412.538 4076,415.5C 4067.2,421.569 4058.03,422.069 4048.5,417C 4045.07,413.896 4042.9,410.063 4042,405.5C 4041.12,398.751 4041.46,392.084 4043,385.5C 4045.83,379.493 4050.33,375.493 4056.5,373.5 Z"/></g>
<g><path style="opacity:0.858" fill="#4b5c65" d="M 4155.5,373.5 C 4164.08,372.186 4170.58,375.186 4175,382.5C 4176.44,395.092 4176.94,407.759 4176.5,420.5C 4173.83,420.5 4171.17,420.5 4168.5,420.5C 4168.67,409.495 4168.5,398.495 4168,387.5C 4164.66,380.752 4159.49,378.919 4152.5,382C 4150.19,383.637 4148.69,385.804 4148,388.5C 4147.5,399.161 4147.33,409.828 4147.5,420.5C 4144.83,420.5 4142.17,420.5 4139.5,420.5C 4139.5,405.167 4139.5,389.833 4139.5,374.5C 4142.17,374.5 4144.83,374.5 4147.5,374.5C 4147.35,375.552 4147.52,376.552 4148,377.5C 4150.51,375.996 4153.01,374.662 4155.5,373.5 Z"/></g>
<g><path style="opacity:0.89" fill="#4b5c65" d="M 4203.5,373.5 C 4214.83,372.237 4222.33,376.904 4226,387.5C 4226.9,395.246 4226.56,402.913 4225,410.5C 4219.72,419.547 4211.88,422.714 4201.5,420C 4195.27,418.037 4191.44,413.87 4190,407.5C 4189.1,399.754 4189.44,392.087 4191,384.5C 4193.5,378.822 4197.67,375.155 4203.5,373.5 Z M 4205.5,380.5 C 4213.13,380.299 4217.63,383.966 4219,391.5C 4219.77,396.904 4219.44,402.238 4218,407.5C 4216.83,410 4215,411.833 4212.5,413C 4203.35,415.344 4198.19,411.844 4197,402.5C 4196.25,397.428 4196.58,392.428 4198,387.5C 4199.77,384.228 4202.27,381.895 4205.5,380.5 Z"/></g>
<g><path style="opacity:0.889" fill="#4b5c65" d="M 4277.5,373.5 C 4288.83,372.237 4296.33,376.904 4300,387.5C 4300.9,395.246 4300.56,402.913 4299,410.5C 4293.72,419.547 4285.88,422.714 4275.5,420C 4269.27,418.037 4265.44,413.87 4264,407.5C 4263.1,399.754 4263.44,392.087 4265,384.5C 4267.5,378.822 4271.67,375.155 4277.5,373.5 Z M 4279.5,380.5 C 4287.13,380.299 4291.63,383.966 4293,391.5C 4293.69,396.891 4293.36,402.225 4292,407.5C 4290.83,410 4289,411.833 4286.5,413C 4277.35,415.344 4272.19,411.844 4271,402.5C 4270.25,397.428 4270.58,392.428 4272,387.5C 4273.77,384.228 4276.27,381.895 4279.5,380.5 Z"/></g>
<g><path style="opacity:0.881" fill="#4b5c65" d="M 4324.5,373.5 C 4330.28,372.708 4335.45,374.041 4340,377.5C 4340.48,376.552 4340.65,375.552 4340.5,374.5C 4343.17,374.5 4345.83,374.5 4348.5,374.5C 4348.95,392.889 4348.45,411.222 4347,429.5C 4343.53,437.237 4337.53,441.237 4329,441.5C 4322.74,441.366 4317.57,439.033 4313.5,434.5C 4314.81,432.684 4316.31,431.017 4318,429.5C 4327.14,437.138 4334.47,435.804 4340,425.5C 4340.67,422.5 4340.67,419.5 4340,416.5C 4331.89,421.982 4324.06,421.649 4316.5,415.5C 4311.37,405.697 4310.2,395.364 4313,384.5C 4314.78,378.55 4318.61,374.884 4324.5,373.5 Z M 4326.5,380.5 C 4333.78,379.387 4338.28,382.387 4340,389.5C 4340.86,395.585 4340.53,401.585 4339,407.5C 4335.54,413.206 4330.71,414.706 4324.5,412C 4322.11,410.048 4320.61,407.548 4320,404.5C 4318.9,397.615 4319.57,390.949 4322,384.5C 4323.4,382.93 4324.9,381.596 4326.5,380.5 Z"/></g>
<g><path style="opacity:0.864" fill="#4b5c65" d="M 4399.5,373.5 C 4416.79,373.334 4424.46,382.001 4422.5,399.5C 4412.5,399.5 4402.5,399.5 4392.5,399.5C 4392.96,411.462 4398.96,415.962 4410.5,413C 4412.75,411.623 4414.92,410.123 4417,408.5C 4418.69,410.017 4420.19,411.684 4421.5,413.5C 4417.26,418.701 4411.76,421.034 4405,420.5C 4393.62,421.128 4386.96,415.795 4385,404.5C 4382.66,393.327 4385.5,383.827 4393.5,376C 4395.61,375.155 4397.61,374.322 4399.5,373.5 Z M 4399.5,380.5 C 4409.18,379.511 4414.18,383.845 4414.5,393.5C 4407.17,393.5 4399.83,393.5 4392.5,393.5C 4392.02,387.559 4394.36,383.226 4399.5,380.5 Z"/></g>
<g><path style="opacity:0.835" fill="#4b5c65" d="M 3866.5,374.5 C 3869.17,374.5 3871.83,374.5 3874.5,374.5C 3874.5,389.833 3874.5,405.167 3874.5,420.5C 3871.83,420.5 3869.17,420.5 3866.5,420.5C 3866.5,405.167 3866.5,389.833 3866.5,374.5 Z"/></g>
<g><path style="opacity:0.835" fill="#4b5c65" d="M 4363.5,374.5 C 4366.17,374.5 4368.83,374.5 4371.5,374.5C 4371.5,389.833 4371.5,405.167 4371.5,420.5C 4368.83,420.5 4366.17,420.5 4363.5,420.5C 4363.5,405.167 4363.5,389.833 4363.5,374.5 Z"/></g>
<g><path style="opacity:0.918" fill="#4b5c65" d="M 136.5,607.5 C 130.833,607.5 125.167,607.5 119.5,607.5C 111.811,603.614 107.311,597.28 106,588.5C 103.814,568.448 104.147,548.448 107,528.5C 114.282,513.877 125.449,510.044 140.5,517C 146.933,522.702 149.933,529.869 149.5,538.5C 145.5,538.5 141.5,538.5 137.5,538.5C 138.021,531.18 134.854,526.513 128,524.5C 121.72,525.346 118.386,529.012 118,535.5C 117.65,544.01 117.15,552.51 116.5,561C 117.15,569.49 117.65,577.99 118,586.5C 119.001,595.866 123.834,599.032 132.5,596C 136.023,592.602 137.689,588.436 137.5,583.5C 141.5,583.5 145.5,583.5 149.5,583.5C 149.83,594.181 145.497,602.181 136.5,607.5 Z"/></g>
<g><path style="opacity:0.92" fill="#4b5c65" d="M 350.5,607.5 C 344.167,607.5 337.833,607.5 331.5,607.5C 321.188,602.551 316.855,594.218 318.5,582.5C 322.5,582.5 326.5,582.5 330.5,582.5C 329.128,590.773 332.461,595.773 340.5,597.5C 348.753,596.03 352.42,591.03 351.5,582.5C 351.276,577.63 349.943,573.13 347.5,569C 339.436,565.551 331.603,561.718 324,557.5C 323,555.833 322,554.167 321,552.5C 319.443,545.247 319.11,537.914 320,530.5C 322.794,519.712 329.794,514.045 341,513.5C 357.047,514.721 364.214,523.387 362.5,539.5C 358.5,539.5 354.5,539.5 350.5,539.5C 351.974,528.157 347.308,523.657 336.5,526C 332.485,529.371 330.818,533.704 331.5,539C 330.693,544.05 332.36,548.05 336.5,551C 343.434,553.468 350.101,556.468 356.5,560C 359.231,562.626 361.064,565.793 362,569.5C 364,577.833 364,586.167 362,594.5C 361.194,597.446 359.861,600.112 358,602.5C 355.521,604.314 353.021,605.981 350.5,607.5 Z"/></g>
<g><path style="opacity:0.922" fill="#4b5c65" d="M 407.5,607.5 C 401.833,607.5 396.167,607.5 390.5,607.5C 382,603.187 377.5,596.187 377,586.5C 376.333,569.5 376.333,552.5 377,535.5C 379.68,517.574 389.846,510.741 407.5,515C 417.138,519.768 421.472,527.601 420.5,538.5C 416.5,538.5 412.5,538.5 408.5,538.5C 409.408,530.93 406.242,526.263 399,524.5C 392.363,526.152 389.03,530.485 389,537.5C 388.333,553.167 388.333,568.833 389,584.5C 389.422,595.273 394.588,598.94 404.5,595.5C 407.62,592.139 408.954,588.139 408.5,583.5C 412.5,583.5 416.5,583.5 420.5,583.5C 421.309,594.565 416.976,602.565 407.5,607.5 Z"/></g>
<g><path style="opacity:0.925" fill="#4b5c65" d="M 667.5,607.5 C 661.833,607.5 656.167,607.5 650.5,607.5C 643.935,604.095 639.768,598.761 638,591.5C 636.416,573.205 636.082,554.872 637,536.5C 639.176,517.99 649.343,510.823 667.5,515C 675.395,518.579 679.895,524.745 681,533.5C 683,551.833 683,570.167 681,588.5C 679.72,597.257 675.22,603.591 667.5,607.5 Z M 656.5,524.5 C 662.031,524.177 665.864,526.51 668,531.5C 671.333,551.167 671.333,570.833 668,590.5C 664.482,598.061 659.315,599.394 652.5,594.5C 650.279,591.209 649.113,587.543 649,583.5C 648.333,568.5 648.333,553.5 649,538.5C 648.789,532.244 651.289,527.577 656.5,524.5 Z"/></g>
<g><path style="opacity:0.919" fill="#4b5c65" d="M 728.5,607.5 C 722.833,607.5 717.167,607.5 711.5,607.5C 703.896,604.012 699.396,598.012 698,589.5C 696.576,574.524 696.243,559.524 697,544.5C 696.226,534.404 699.059,525.571 705.5,518C 716.993,511.129 727.493,512.295 737,521.5C 739.829,526.812 741.329,532.479 741.5,538.5C 737.5,538.5 733.5,538.5 729.5,538.5C 729.595,527.738 724.595,523.571 714.5,526C 712.062,528.295 710.562,531.128 710,534.5C 708,552.167 708,569.833 710,587.5C 711.515,596.171 716.349,599.004 724.5,596C 727.904,592.572 729.571,588.405 729.5,583.5C 733.5,583.5 737.5,583.5 741.5,583.5C 741.821,594.203 737.487,602.203 728.5,607.5 Z"/></g>
<g><path style="opacity:0.921" fill="#4b5c65" d="M 846.5,607.5 C 840.5,607.5 834.5,607.5 828.5,607.5C 818.184,602.544 813.851,594.21 815.5,582.5C 819.5,582.5 823.5,582.5 827.5,582.5C 826.842,593.688 831.842,598.188 842.5,596C 844.815,594.891 846.315,593.057 847,590.5C 847.667,584.833 847.667,579.167 847,573.5C 845.878,571.376 844.378,569.543 842.5,568C 835.833,565 829.167,562 822.5,559C 817.598,553.298 815.265,546.632 815.5,539C 818.517,515.657 830.85,508.657 852.5,518C 858.286,523.958 860.62,531.125 859.5,539.5C 855.5,539.5 851.5,539.5 847.5,539.5C 848.811,531.546 845.644,526.546 838,524.5C 830.649,526.175 827.482,530.841 828.5,538.5C 827.542,543.746 829.208,547.913 833.5,551C 840.404,553.451 847.07,556.451 853.5,560C 858.756,566.348 860.756,573.681 859.5,582C 861.815,594.209 857.482,602.709 846.5,607.5 Z"/></g>
<g><path style="opacity:0.919" fill="#4b5c65" d="M 904.5,607.5 C 898.833,607.5 893.167,607.5 887.5,607.5C 879.825,603.625 875.325,597.291 874,588.5C 873.642,579.491 873.142,570.491 872.5,561.5C 873.151,552.176 873.651,542.842 874,533.5C 877.811,517.007 887.977,510.84 904.5,515C 913.63,520.086 917.963,527.919 917.5,538.5C 913.5,538.5 909.5,538.5 905.5,538.5C 905.189,526.299 899.689,522.632 889,527.5C 887.438,529.957 886.438,532.624 886,535.5C 885.333,552.5 885.333,569.5 886,586.5C 887.001,595.866 891.834,599.032 900.5,596C 904.023,592.602 905.689,588.436 905.5,583.5C 909.5,583.5 913.5,583.5 917.5,583.5C 918.355,594.465 914.022,602.465 904.5,607.5 Z"/></g>
<g><path style="opacity:0.923" fill="#4b5c65" d="M 1643.5,607.5 C 1637.17,607.5 1630.83,607.5 1624.5,607.5C 1614.72,602.277 1610.39,593.944 1611.5,582.5C 1615.5,582.5 1619.5,582.5 1623.5,582.5C 1623.02,594.203 1628.36,598.703 1639.5,596C 1642.27,594.238 1643.77,591.738 1644,588.5C 1644.67,584.167 1644.67,579.833 1644,575.5C 1643.39,572.452 1641.89,569.952 1639.5,568C 1633.95,565.39 1628.28,563.057 1622.5,561C 1614.75,555.995 1611.42,548.829 1612.5,539.5C 1613.62,517.931 1624.62,510.097 1645.5,516C 1653.85,521.515 1657.52,529.348 1656.5,539.5C 1652.5,539.5 1648.5,539.5 1644.5,539.5C 1645.38,531.225 1641.88,526.225 1634,524.5C 1627.14,526.519 1623.98,531.186 1624.5,538.5C 1624.35,542.883 1625.68,546.717 1628.5,550C 1635.17,553 1641.83,556 1648.5,559C 1654.83,565.292 1657.5,572.959 1656.5,582C 1658.09,593.842 1653.76,602.342 1643.5,607.5 Z"/></g>
<g><path style="opacity:0.919" fill="#4b5c65" d="M 1702.5,607.5 C 1696.17,607.5 1689.83,607.5 1683.5,607.5C 1673.18,602.544 1668.85,594.21 1670.5,582.5C 1674.5,582.5 1678.5,582.5 1682.5,582.5C 1681.12,590.761 1684.46,595.761 1692.5,597.5C 1695.76,597.026 1698.6,595.693 1701,593.5C 1704.1,585.135 1703.6,576.969 1699.5,569C 1692.92,565.806 1686.25,562.806 1679.5,560C 1676.27,558.437 1674.1,555.937 1673,552.5C 1671.44,544.913 1671.1,537.246 1672,529.5C 1675.24,519.269 1682.24,513.936 1693,513.5C 1709.04,514.711 1716.2,523.377 1714.5,539.5C 1710.5,539.5 1706.5,539.5 1702.5,539.5C 1703.85,531.508 1700.68,526.508 1693,524.5C 1685.47,526.377 1682.31,531.21 1683.5,539C 1682.69,544.05 1684.36,548.05 1688.5,551C 1695.43,553.468 1702.1,556.468 1708.5,560C 1711.23,562.626 1713.06,565.793 1714,569.5C 1715.92,577.838 1715.92,586.172 1714,594.5C 1713.19,597.446 1711.86,600.112 1710,602.5C 1707.52,604.314 1705.02,605.981 1702.5,607.5 Z"/></g>
<g><path style="opacity:0.934" fill="#4b5c65" d="M -0.5,514.5 C 13.5,514.5 27.5,514.5 41.5,514.5C 41.5,518.167 41.5,521.833 41.5,525.5C 36.5,525.5 31.5,525.5 26.5,525.5C 26.5,552.833 26.5,580.167 26.5,607.5C 22.5,607.5 18.5,607.5 14.5,607.5C 14.5,580.167 14.5,552.833 14.5,525.5C 9.5,525.5 4.5,525.5 -0.5,525.5C -0.5,521.833 -0.5,518.167 -0.5,514.5 Z"/></g>
<g><path style="opacity:0.932" fill="#4b5c65" d="M 92.5,607.5 C 80.5,607.5 68.5,607.5 56.5,607.5C 56.5,576.5 56.5,545.5 56.5,514.5C 68.5,514.5 80.5,514.5 92.5,514.5C 92.5,518.167 92.5,521.833 92.5,525.5C 84.5,525.5 76.5,525.5 68.5,525.5C 68.5,535.5 68.5,545.5 68.5,555.5C 75.5,555.5 82.5,555.5 89.5,555.5C 89.5,559.167 89.5,562.833 89.5,566.5C 82.5,566.5 75.5,566.5 68.5,566.5C 68.5,576.5 68.5,586.5 68.5,596.5C 76.5,596.5 84.5,596.5 92.5,596.5C 92.5,600.167 92.5,603.833 92.5,607.5 Z"/></g>
<g><path style="opacity:0.927" fill="#4b5c65" d="M 208.5,607.5 C 204.5,607.5 200.5,607.5 196.5,607.5C 196.5,593.5 196.5,579.5 196.5,565.5C 189.833,565.5 183.167,565.5 176.5,565.5C 176.5,579.5 176.5,593.5 176.5,607.5C 172.5,607.5 168.5,607.5 164.5,607.5C 164.5,576.5 164.5,545.5 164.5,514.5C 168.5,514.5 172.5,514.5 176.5,514.5C 176.5,527.833 176.5,541.167 176.5,554.5C 183.167,554.5 189.833,554.5 196.5,554.5C 196.5,541.167 196.5,527.833 196.5,514.5C 200.5,514.5 204.5,514.5 208.5,514.5C 208.5,545.5 208.5,576.5 208.5,607.5 Z"/></g>
<g><path style="opacity:0.938" fill="#4b5c65" d="M 271.5,607.5 C 267.833,607.5 264.167,607.5 260.5,607.5C 253.625,588.079 246.458,568.745 239,549.5C 238.5,568.83 238.333,588.164 238.5,607.5C 234.5,607.5 230.5,607.5 226.5,607.5C 226.5,576.5 226.5,545.5 226.5,514.5C 230.226,514.177 233.893,514.511 237.5,515.5C 244.667,534.5 251.833,553.5 259,572.5C 259.5,553.17 259.667,533.836 259.5,514.5C 263.5,514.5 267.5,514.5 271.5,514.5C 271.5,545.5 271.5,576.5 271.5,607.5 Z"/></g>
<g><path style="opacity:0.928" fill="#4b5c65" d="M 303.5,607.5 C 299.5,607.5 295.5,607.5 291.5,607.5C 291.5,576.5 291.5,545.5 291.5,514.5C 295.5,514.5 299.5,514.5 303.5,514.5C 303.5,545.5 303.5,576.5 303.5,607.5 Z"/></g>
<g><path style="opacity:0.93" fill="#4b5c65" d="M 478.5,607.5 C 474.5,607.5 470.5,607.5 466.5,607.5C 466.5,593.5 466.5,579.5 466.5,565.5C 460.167,565.5 453.833,565.5 447.5,565.5C 447.5,579.5 447.5,593.5 447.5,607.5C 443.5,607.5 439.5,607.5 435.5,607.5C 435.5,576.5 435.5,545.5 435.5,514.5C 439.5,514.5 443.5,514.5 447.5,514.5C 447.5,527.833 447.5,541.167 447.5,554.5C 453.833,554.5 460.167,554.5 466.5,554.5C 466.5,541.167 466.5,527.833 466.5,514.5C 470.5,514.5 474.5,514.5 478.5,514.5C 478.5,545.5 478.5,576.5 478.5,607.5 Z"/></g>
<g><path style="opacity:0.932" fill="#4b5c65" d="M 532.5,607.5 C 520.5,607.5 508.5,607.5 496.5,607.5C 496.5,576.5 496.5,545.5 496.5,514.5C 508.5,514.5 520.5,514.5 532.5,514.5C 532.5,518.167 532.5,521.833 532.5,525.5C 524.5,525.5 516.5,525.5 508.5,525.5C 508.5,535.5 508.5,545.5 508.5,555.5C 515.5,555.5 522.5,555.5 529.5,555.5C 529.5,559.167 529.5,562.833 529.5,566.5C 522.5,566.5 515.5,566.5 508.5,566.5C 508.5,576.5 508.5,586.5 508.5,596.5C 516.5,596.5 524.5,596.5 532.5,596.5C 532.5,600.167 532.5,603.833 532.5,607.5 Z"/></g>
<g><path style="opacity:0.94" fill="#4b5c65" d="M 620.5,607.5 C 616.5,607.5 612.5,607.5 608.5,607.5C 608.5,593.5 608.5,579.5 608.5,565.5C 602.167,565.5 595.833,565.5 589.5,565.5C 589.5,579.5 589.5,593.5 589.5,607.5C 585.5,607.5 581.5,607.5 577.5,607.5C 577.5,576.5 577.5,545.5 577.5,514.5C 581.5,514.5 585.5,514.5 589.5,514.5C 589.5,527.833 589.5,541.167 589.5,554.5C 595.833,554.5 602.167,554.5 608.5,554.5C 608.5,541.167 608.5,527.833 608.5,514.5C 612.5,514.5 616.5,514.5 620.5,514.5C 620.5,545.5 620.5,576.5 620.5,607.5 Z"/></g>
<g><path style="opacity:0.905" fill="#4b5c65" d="M 800.5,607.5 C 796.167,607.5 791.833,607.5 787.5,607.5C 787.5,593.5 787.5,579.5 787.5,565.5C 781.167,565.5 774.833,565.5 768.5,565.5C 768.5,579.5 768.5,593.5 768.5,607.5C 764.5,607.5 760.5,607.5 756.5,607.5C 756.5,576.5 756.5,545.5 756.5,514.5C 760.5,514.5 764.5,514.5 768.5,514.5C 768.5,527.833 768.5,541.167 768.5,554.5C 774.833,554.5 781.167,554.5 787.5,554.5C 787.5,541.167 787.5,527.833 787.5,514.5C 791.833,514.5 796.167,514.5 800.5,514.5C 800.5,545.5 800.5,576.5 800.5,607.5 Z"/></g>
<g><path style="opacity:0.94" fill="#4b5c65" d="M 975.5,607.5 C 971.5,607.5 967.5,607.5 963.5,607.5C 963.5,593.5 963.5,579.5 963.5,565.5C 957.167,565.5 950.833,565.5 944.5,565.5C 944.5,579.5 944.5,593.5 944.5,607.5C 940.5,607.5 936.5,607.5 932.5,607.5C 932.5,576.5 932.5,545.5 932.5,514.5C 936.5,514.5 940.5,514.5 944.5,514.5C 944.5,527.833 944.5,541.167 944.5,554.5C 950.833,554.5 957.167,554.5 963.5,554.5C 963.5,541.167 963.5,527.833 963.5,514.5C 967.5,514.5 971.5,514.5 975.5,514.5C 975.5,545.5 975.5,576.5 975.5,607.5 Z"/></g>
<g><path style="opacity:0.91" fill="#4b5c65" d="M 1023.5,607.5 C 1017.83,607.5 1012.17,607.5 1006.5,607.5C 997.823,603.852 993.323,597.186 993,587.5C 992.5,563.169 992.333,538.836 992.5,514.5C 996.833,514.5 1001.17,514.5 1005.5,514.5C 1005.33,540.169 1005.5,565.835 1006,591.5C 1009.04,597.368 1013.54,598.868 1019.5,596C 1021.81,594.363 1023.31,592.196 1024,589.5C 1024.5,564.502 1024.67,539.502 1024.5,514.5C 1028.5,514.5 1032.5,514.5 1036.5,514.5C 1036.67,539.836 1036.5,565.169 1036,590.5C 1034.67,598.318 1030.51,603.985 1023.5,607.5 Z"/></g>
<g><path style="opacity:0.923" fill="#4b5c65" d="M 1090.5,607.5 C 1078.17,607.5 1065.83,607.5 1053.5,607.5C 1053.5,576.5 1053.5,545.5 1053.5,514.5C 1057.5,514.5 1061.5,514.5 1065.5,514.5C 1065.5,541.833 1065.5,569.167 1065.5,596.5C 1073.83,596.5 1082.17,596.5 1090.5,596.5C 1090.5,600.167 1090.5,603.833 1090.5,607.5 Z"/></g>
<g><path style="opacity:0.935" fill="#4b5c65" d="M 1140.5,607.5 C 1128.5,607.5 1116.5,607.5 1104.5,607.5C 1104.5,576.5 1104.5,545.5 1104.5,514.5C 1116.5,514.5 1128.5,514.5 1140.5,514.5C 1140.5,518.167 1140.5,521.833 1140.5,525.5C 1132.5,525.5 1124.5,525.5 1116.5,525.5C 1116.5,535.5 1116.5,545.5 1116.5,555.5C 1123.5,555.5 1130.5,555.5 1137.5,555.5C 1137.5,559.167 1137.5,562.833 1137.5,566.5C 1130.5,566.5 1123.5,566.5 1116.5,566.5C 1116.5,576.5 1116.5,586.5 1116.5,596.5C 1124.5,596.5 1132.5,596.5 1140.5,596.5C 1140.5,600.167 1140.5,603.833 1140.5,607.5 Z"/></g>
<g><path style="opacity:0.926" fill="#4b5c65" d="M 1243.5,607.5 C 1239.5,607.5 1235.5,607.5 1231.5,607.5C 1231.67,587.164 1231.5,566.831 1231,546.5C 1226.93,558.87 1222.77,571.204 1218.5,583.5C 1215.57,584.484 1212.57,584.817 1209.5,584.5C 1205.84,571.685 1201.67,559.018 1197,546.5C 1196.5,566.831 1196.33,587.164 1196.5,607.5C 1192.5,607.5 1188.5,607.5 1184.5,607.5C 1184.5,576.5 1184.5,545.5 1184.5,514.5C 1188.55,514.176 1192.55,514.509 1196.5,515.5C 1202.43,531.462 1208.27,547.462 1214,563.5C 1220.38,547.689 1226.38,531.689 1232,515.5C 1235.73,514.54 1239.56,514.207 1243.5,514.5C 1243.5,545.5 1243.5,576.5 1243.5,607.5 Z"/></g>
<g><path style="opacity:0.928" fill="#4b5c65" d="M 1273.5,607.5 C 1269.5,607.5 1265.5,607.5 1261.5,607.5C 1261.5,576.5 1261.5,545.5 1261.5,514.5C 1265.5,514.5 1269.5,514.5 1273.5,514.5C 1273.5,545.5 1273.5,576.5 1273.5,607.5 Z"/></g>
<g><path style="opacity:0.927" fill="#4b5c65" d="M 1314.5,607.5 C 1310.5,607.5 1306.5,607.5 1302.5,607.5C 1302.5,580.167 1302.5,552.833 1302.5,525.5C 1297.5,525.5 1292.5,525.5 1287.5,525.5C 1287.5,521.833 1287.5,518.167 1287.5,514.5C 1301.83,514.5 1316.17,514.5 1330.5,514.5C 1330.5,518.167 1330.5,521.833 1330.5,525.5C 1325.17,525.5 1319.83,525.5 1314.5,525.5C 1314.5,552.833 1314.5,580.167 1314.5,607.5 Z"/></g>
<g><path style="opacity:0.891" fill="#4b5c65" d="M 1369.5,607.5 C 1365.17,607.5 1360.83,607.5 1356.5,607.5C 1356.5,580.167 1356.5,552.833 1356.5,525.5C 1351.5,525.5 1346.5,525.5 1341.5,525.5C 1341.5,521.833 1341.5,518.167 1341.5,514.5C 1355.83,514.5 1370.17,514.5 1384.5,514.5C 1384.5,518.167 1384.5,521.833 1384.5,525.5C 1379.5,525.5 1374.5,525.5 1369.5,525.5C 1369.5,552.833 1369.5,580.167 1369.5,607.5 Z"/></g>
<g><path style="opacity:0.932" fill="#4b5c65" d="M 1434.5,607.5 C 1422.5,607.5 1410.5,607.5 1398.5,607.5C 1398.5,576.5 1398.5,545.5 1398.5,514.5C 1410.5,514.5 1422.5,514.5 1434.5,514.5C 1434.5,518.167 1434.5,521.833 1434.5,525.5C 1426.5,525.5 1418.5,525.5 1410.5,525.5C 1410.5,535.5 1410.5,545.5 1410.5,555.5C 1417.5,555.5 1424.5,555.5 1431.5,555.5C 1431.5,559.167 1431.5,562.833 1431.5,566.5C 1424.5,566.5 1417.5,566.5 1410.5,566.5C 1410.5,576.5 1410.5,586.5 1410.5,596.5C 1418.5,596.5 1426.5,596.5 1434.5,596.5C 1434.5,600.167 1434.5,603.833 1434.5,607.5 Z"/></g>
<g><path style="opacity:0.932" fill="#4b5c65" d="M 1486.5,607.5 C 1474.5,607.5 1462.5,607.5 1450.5,607.5C 1450.5,576.5 1450.5,545.5 1450.5,514.5C 1454.5,514.5 1458.5,514.5 1462.5,514.5C 1462.5,541.833 1462.5,569.167 1462.5,596.5C 1470.5,596.5 1478.5,596.5 1486.5,596.5C 1486.5,600.167 1486.5,603.833 1486.5,607.5 Z"/></g>
<g><path style="opacity:0.94" fill="#4b5c65" d="M 1544.5,607.5 C 1540.5,607.5 1536.5,607.5 1532.5,607.5C 1532.5,593.5 1532.5,579.5 1532.5,565.5C 1526.17,565.5 1519.83,565.5 1513.5,565.5C 1513.5,579.5 1513.5,593.5 1513.5,607.5C 1509.5,607.5 1505.5,607.5 1501.5,607.5C 1501.5,576.5 1501.5,545.5 1501.5,514.5C 1505.5,514.5 1509.5,514.5 1513.5,514.5C 1513.5,527.833 1513.5,541.167 1513.5,554.5C 1519.83,554.5 1526.17,554.5 1532.5,554.5C 1532.5,541.167 1532.5,527.833 1532.5,514.5C 1536.5,514.5 1540.5,514.5 1544.5,514.5C 1544.5,545.5 1544.5,576.5 1544.5,607.5 Z"/></g>
<g><path style="opacity:0.935" fill="#4b5c65" d="M 1598.5,607.5 C 1586.5,607.5 1574.5,607.5 1562.5,607.5C 1562.5,576.5 1562.5,545.5 1562.5,514.5C 1574.5,514.5 1586.5,514.5 1598.5,514.5C 1598.5,518.167 1598.5,521.833 1598.5,525.5C 1590.5,525.5 1582.5,525.5 1574.5,525.5C 1574.5,535.5 1574.5,545.5 1574.5,555.5C 1581.5,555.5 1588.5,555.5 1595.5,555.5C 1595.5,559.167 1595.5,562.833 1595.5,566.5C 1588.5,566.5 1581.5,566.5 1574.5,566.5C 1574.5,576.5 1574.5,586.5 1574.5,596.5C 1582.5,596.5 1590.5,596.5 1598.5,596.5C 1598.5,600.167 1598.5,603.833 1598.5,607.5 Z"/></g>
<g><path style="opacity:0.924" fill="#4b5c65" d="M 1767.5,607.5 C 1755.17,607.5 1742.83,607.5 1730.5,607.5C 1730.5,576.5 1730.5,545.5 1730.5,514.5C 1742.83,514.5 1755.17,514.5 1767.5,514.5C 1767.5,518.167 1767.5,521.833 1767.5,525.5C 1759.17,525.5 1750.83,525.5 1742.5,525.5C 1742.5,535.5 1742.5,545.5 1742.5,555.5C 1749.5,555.5 1756.5,555.5 1763.5,555.5C 1763.5,559.167 1763.5,562.833 1763.5,566.5C 1756.5,566.5 1749.5,566.5 1742.5,566.5C 1742.5,576.5 1742.5,586.5 1742.5,596.5C 1750.83,596.5 1759.17,596.5 1767.5,596.5C 1767.5,600.167 1767.5,603.833 1767.5,607.5 Z"/></g>
<g><path style="opacity:0.933" fill="#4b5c65" d="M 1828.5,607.5 C 1824.83,607.5 1821.17,607.5 1817.5,607.5C 1809.91,587.901 1802.41,568.234 1795,548.5C 1794.5,568.164 1794.33,587.831 1794.5,607.5C 1790.5,607.5 1786.5,607.5 1782.5,607.5C 1782.5,576.5 1782.5,545.5 1782.5,514.5C 1786.44,514.207 1790.27,514.54 1794,515.5C 1801.53,535.089 1808.86,554.756 1816,574.5C 1816.5,554.503 1816.67,534.503 1816.5,514.5C 1820.5,514.5 1824.5,514.5 1828.5,514.5C 1828.5,545.5 1828.5,576.5 1828.5,607.5 Z"/></g>
</svg>
